{
  "data" : [ {
    "uuid" : "209f048a995443c89f048a995463c84f",
    "creator" : {
      "firstName" : "Joe",
      "lastName" : "Doe",
      "uuid" : "ced5f3fabc014a9295f3fabc01ba92d2"
    },
    "created" : "2018-10-01T14:21:19.707Z",
    "editor" : {
      "firstName" : "Joe",
      "lastName" : "Doe",
      "uuid" : "c812c7b40b8946b392c7b40b8976b333"
    },
    "edited" : "2018-10-01T14:21:19.707Z",
    "tagFamily" : {
      "name" : "colors",
      "uuid" : "c1699ef383c14f82a99ef383c11f824b"
    },
    "name" : "green",
    "permissions" : {
      "create" : true,
      "read" : true,
      "update" : true,
      "delete" : true,
      "publish" : false,
      "readPublished" : false
    }
  }, {
    "uuid" : "af86f369c07440bd86f369c07410bd49",
    "creator" : {
      "firstName" : "Joe",
      "lastName" : "Doe",
      "uuid" : "6350b53f71c9415b90b53f71c9f15b14"
    },
    "created" : "2018-10-01T14:21:19.707Z",
    "editor" : {
      "firstName" : "Joe",
      "lastName" : "Doe",
      "uuid" : "13b391ed5d0d4e4ab391ed5d0d3e4a7f"
    },
    "edited" : "2018-10-01T14:21:19.707Z",
    "tagFamily" : {
      "name" : "colors",
      "uuid" : "98f0616e958e4decb0616e958e4dec56"
    },
    "name" : "Name for language tag en",
    "permissions" : {
      "create" : true,
      "read" : true,
      "update" : false,
      "delete" : false,
      "publish" : false,
      "readPublished" : false
    }
  } ],
  "_metainfo" : {
    "currentPage" : 1,
    "perPage" : 2,
    "pageCount" : 10,
    "totalCount" : 20
  }
}