{
  "data" : [ {
    "uuid" : "b67209ffaef14724b209ffaef1872437",
    "creator" : {
      "firstName" : "Joe",
      "lastName" : "Doe",
      "uuid" : "4f8dc753d6714b088dc753d6711b08f7"
    },
    "created" : "2018-10-19T22:39:57.887Z",
    "editor" : {
      "firstName" : "Joe",
      "lastName" : "Doe",
      "uuid" : "78b90dbb3e414f2eb90dbb3e413f2e8b"
    },
    "edited" : "2018-10-19T22:39:57.887Z",
    "name" : "Reader role",
    "groups" : [ ],
    "permissions" : {
      "create" : true,
      "read" : true,
      "update" : true,
      "delete" : true,
      "publish" : false,
      "readPublished" : false
    }
  }, {
    "uuid" : "49bf6e6849da4ba9bf6e6849da2ba9ed",
    "creator" : {
      "firstName" : "Joe",
      "lastName" : "Doe",
      "uuid" : "993c7dac64fa45b0bc7dac64fa75b097"
    },
    "created" : "2018-10-19T22:39:57.887Z",
    "editor" : {
      "firstName" : "Joe",
      "lastName" : "Doe",
      "uuid" : "54148475a4874074948475a487e074c7"
    },
    "edited" : "2018-10-19T22:39:57.887Z",
    "name" : "Admin role",
    "groups" : [ {
      "name" : "editors",
      "uuid" : "301cc6af82a04a109cc6af82a0fa10a2"
    }, {
      "name" : "guests",
      "uuid" : "9b989fb2c9654077989fb2c965c07727"
    } ],
    "permissions" : {
      "create" : true,
      "read" : true,
      "update" : true,
      "delete" : true,
      "publish" : false,
      "readPublished" : false
    }
  } ],
  "_metainfo" : {
    "currentPage" : 1,
    "perPage" : 2,
    "pageCount" : 10,
    "totalCount" : 20
  }
}