{
  "data" : [ {
    "uuid" : "25c0e97f831f454680e97f831f0546d0",
    "displayField" : "name",
    "segmentField" : "name",
    "container" : false,
    "description" : "Example schema description",
    "name" : "ExampleSchema",
    "fields" : [ {
      "name" : "name",
      "label" : "Name",
      "required" : false,
      "type" : "string"
    }, {
      "name" : "number",
      "label" : "Number",
      "required" : false,
      "type" : "number"
    }, {
      "name" : "html",
      "label" : "Teaser",
      "required" : false,
      "type" : "html"
    }, {
      "name" : "list",
      "label" : "List of nodes",
      "required" : false,
      "listType" : "node",
      "type" : "list",
      "allow" : [ "content", "video" ]
    }, {
      "name" : "node",
      "required" : false,
      "type" : "node",
      "allow" : [ "content", "video", "image" ]
    }, {
      "name" : "location",
      "label" : "Location",
      "required" : false,
      "type" : "micronode",
      "allow" : [ "geolocation" ]
    }, {
      "name" : "locationlist",
      "label" : "List of Locations",
      "required" : false,
      "listType" : "micronode",
      "type" : "list",
      "allow" : [ "geolocation" ]
    } ],
    "permissions" : {
      "create" : true,
      "read" : true,
      "update" : true,
      "delete" : true,
      "publish" : false,
      "readPublished" : false
    }
  }, {
    "uuid" : "66ad642aadef41a7ad642aadef71a7ff",
    "displayField" : "name",
    "segmentField" : "name",
    "container" : false,
    "description" : "Example schema description",
    "name" : "ExampleSchema",
    "fields" : [ {
      "name" : "name",
      "label" : "Name",
      "required" : false,
      "type" : "string"
    }, {
      "name" : "number",
      "label" : "Number",
      "required" : false,
      "type" : "number"
    }, {
      "name" : "html",
      "label" : "Teaser",
      "required" : false,
      "type" : "html"
    }, {
      "name" : "list",
      "label" : "List of nodes",
      "required" : false,
      "listType" : "node",
      "type" : "list",
      "allow" : [ "content", "video" ]
    }, {
      "name" : "node",
      "required" : false,
      "type" : "node",
      "allow" : [ "content", "video", "image" ]
    }, {
      "name" : "location",
      "label" : "Location",
      "required" : false,
      "type" : "micronode",
      "allow" : [ "geolocation" ]
    }, {
      "name" : "locationlist",
      "label" : "List of Locations",
      "required" : false,
      "listType" : "micronode",
      "type" : "list",
      "allow" : [ "geolocation" ]
    } ],
    "permissions" : {
      "create" : true,
      "read" : true,
      "update" : true,
      "delete" : true,
      "publish" : false,
      "readPublished" : false
    }
  } ],
  "_metainfo" : {
    "currentPage" : 1,
    "perPage" : 2,
    "pageCount" : 10,
    "totalCount" : 20
  }
}