{
  "data" : [ {
    "uuid" : "daed1df1f47741eaad1df1f47711ea0b",
    "creator" : {
      "firstName" : "Joe",
      "lastName" : "Doe",
      "uuid" : "3612b9b80fb74cb892b9b80fb7acb851"
    },
    "created" : "2018-10-31T16:22:05.803Z",
    "editor" : {
      "firstName" : "Joe",
      "lastName" : "Doe",
      "uuid" : "6cc63ea9e55b4d97863ea9e55bfd97d6"
    },
    "edited" : "2018-10-31T16:22:05.803Z",
    "lastname" : "Doe",
    "firstname" : "Joe",
    "username" : "jdoe",
    "emailAddress" : "j.doe@nowhere.com",
    "nodeReference" : {
      "projectName" : "dummy",
      "uuid" : "0ee646237248441da646237248341d8d"
    },
    "enabled" : true,
    "groups" : [ {
      "name" : "editors",
      "uuid" : "6274e2a073ce4d75b4e2a073ce4d7570"
    } ],
    "permissions" : {
      "create" : true,
      "read" : true,
      "update" : true,
      "delete" : true,
      "publish" : false,
      "readPublished" : false
    }
  }, {
    "uuid" : "9aad878ce7194a2bad878ce7197a2b5b",
    "creator" : {
      "firstName" : "Joe",
      "lastName" : "Doe",
      "uuid" : "2302f1caebe34ded82f1caebe3dded8b"
    },
    "created" : "2018-10-31T16:22:05.803Z",
    "editor" : {
      "firstName" : "Joe",
      "lastName" : "Doe",
      "uuid" : "d95d0023706443c69d00237064f3c628"
    },
    "edited" : "2018-10-31T16:22:05.803Z",
    "lastname" : "Roe",
    "firstname" : "Jane",
    "username" : "jroe",
    "emailAddress" : "j.roe@nowhere.com",
    "nodeReference" : {
      "projectName" : "dummy",
      "uuid" : "ee37535fb0de4beab7535fb0de9bea5c"
    },
    "enabled" : true,
    "groups" : [ {
      "name" : "editors",
      "uuid" : "41c522a662f94e2e8522a662f91e2ebf"
    }, {
      "name" : "super-editors",
      "uuid" : "cd112b6c065a4bae912b6c065aabaee4"
    }, {
      "name" : "editors",
      "uuid" : "786643af31c44db6a643af31c49db655"
    } ],
    "permissions" : {
      "create" : true,
      "read" : true,
      "update" : true,
      "delete" : true,
      "publish" : false,
      "readPublished" : false
    }
  } ],
  "_metainfo" : {
    "currentPage" : 1,
    "perPage" : 2,
    "pageCount" : 10,
    "totalCount" : 20
  }
}