{
  "data" : [ {
    "uuid" : "d60fe075a1604c8d8fe075a1602c8d3b",
    "creator" : {
      "firstName" : "Joe",
      "lastName" : "Doe",
      "uuid" : "e60d28133eb547278d28133eb5872775"
    },
    "created" : "2018-07-25T12:05:01.002Z",
    "editor" : {
      "firstName" : "Joe",
      "lastName" : "Doe",
      "uuid" : "10e65ac6bc4e40faa65ac6bc4e80fa9f"
    },
    "edited" : "2018-07-25T12:05:01.002Z",
    "name" : "Reader role",
    "groups" : [ ],
    "permissions" : {
      "create" : true,
      "read" : true,
      "update" : true,
      "delete" : true,
      "publish" : false,
      "readPublished" : false
    }
  }, {
    "uuid" : "955e18fad0a545b09e18fad0a575b09c",
    "creator" : {
      "firstName" : "Joe",
      "lastName" : "Doe",
      "uuid" : "28dc5dd61a4c40889c5dd61a4c2088b3"
    },
    "created" : "2018-07-25T12:05:01.002Z",
    "editor" : {
      "firstName" : "Joe",
      "lastName" : "Doe",
      "uuid" : "1e962bb2aab448f5962bb2aab448f527"
    },
    "edited" : "2018-07-25T12:05:01.002Z",
    "name" : "Admin role",
    "groups" : [ {
      "name" : "editors",
      "uuid" : "bbc31673c215457a831673c215e57ad5"
    }, {
      "name" : "guests",
      "uuid" : "024c3db55be44a158c3db55be47a15a0"
    } ],
    "permissions" : {
      "create" : true,
      "read" : true,
      "update" : true,
      "delete" : true,
      "publish" : false,
      "readPublished" : false
    }
  } ],
  "_metainfo" : {
    "currentPage" : 1,
    "perPage" : 2,
    "pageCount" : 10,
    "totalCount" : 20
  }
}