{
  "data" : [ {
    "uuid" : "7d115c3211214d03915c3211213d038c",
    "creator" : {
      "firstName" : "Joe",
      "lastName" : "Doe",
      "uuid" : "af7e3ebea5ea4910be3ebea5ea89107d"
    },
    "created" : "2018-11-07T11:45:49.757931Z",
    "editor" : {
      "firstName" : "Joe",
      "lastName" : "Doe",
      "uuid" : "9a22f3255b0241c9a2f3255b02c1c98f"
    },
    "edited" : "2018-11-07T11:45:49.757951Z",
    "name" : "Reader role",
    "groups" : [ ],
    "permissions" : {
      "create" : true,
      "read" : true,
      "update" : true,
      "delete" : true,
      "publish" : false,
      "readPublished" : false
    }
  }, {
    "uuid" : "b2021de6740f47ff821de6740f77ffd4",
    "creator" : {
      "firstName" : "Joe",
      "lastName" : "Doe",
      "uuid" : "931ec2e5bddd45da9ec2e5bdddd5daf3"
    },
    "created" : "2018-11-07T11:45:49.757968Z",
    "editor" : {
      "firstName" : "Joe",
      "lastName" : "Doe",
      "uuid" : "b5fb0acbda3b4dcebb0acbda3b7dce8f"
    },
    "edited" : "2018-11-07T11:45:49.757977Z",
    "name" : "Admin role",
    "groups" : [ {
      "name" : "editors",
      "uuid" : "b710d1564efa415890d1564efae158f3"
    }, {
      "name" : "guests",
      "uuid" : "297fc63d5e7b470fbfc63d5e7b470f52"
    } ],
    "permissions" : {
      "create" : true,
      "read" : true,
      "update" : true,
      "delete" : true,
      "publish" : false,
      "readPublished" : false
    }
  } ],
  "_metainfo" : {
    "currentPage" : 1,
    "perPage" : 2,
    "pageCount" : 10,
    "totalCount" : 20
  }
}