{
  "data" : [ {
    "uuid" : "e427aeeb278947e2a7aeeb2789a7e26e",
    "creator" : {
      "firstName" : "Joe",
      "lastName" : "Doe",
      "uuid" : "34356b70dbea421bb56b70dbea121bfb"
    },
    "created" : "2018-09-28T11:21:12.628Z",
    "edited" : "2018-09-28T11:21:12.628Z",
    "availableLanguages" : {
      "de" : {
        "published" : true,
        "version" : "1.0",
        "publisher" : {
          "firstName" : "Joe",
          "lastName" : "Doe",
          "uuid" : "043a928ec4324270ba928ec432d270c3"
        },
        "publishDate" : "2018-09-28T11:21:12.628Z"
      },
      "en" : {
        "published" : false,
        "version" : "1.1",
        "publisher" : {
          "firstName" : "Joe",
          "lastName" : "Doe",
          "uuid" : "67e13531ea5a4dd6a13531ea5a7dd6ed"
        },
        "publishDate" : "2018-09-28T11:21:12.628Z"
      }
    },
    "languagePaths" : {
      "de" : "/api/v1/yourProject/webroot/Bilder",
      "en" : "/api/v1/yourProject/webroot/Images"
    },
    "parentNode" : {
      "uuid" : "ebcce3a12d934e618ce3a12d930e61f0",
      "displayName" : "parentNodeDisplayName"
    },
    "tags" : [ {
      "name" : "red",
      "uuid" : "4c6cfe3fd8bc4830acfe3fd8bc6830a6",
      "tagFamily" : "colors"
    }, {
      "name" : "red",
      "uuid" : "dda273c49a5e4256a273c49a5e02564f",
      "tagFamily" : "colors"
    }, {
      "name" : "green",
      "uuid" : "ab6282f9855e48f0a282f9855e88f0bc",
      "tagFamily" : "colors"
    }, {
      "name" : "car",
      "uuid" : "9e3c736f436c40d8bc736f436ca0d85e"
    }, {
      "name" : "ship",
      "uuid" : "3a8326638d84451f8326638d84951f96"
    } ],
    "childrenInfo" : {
      "folder" : {
        "schemaUuid" : "fe375689b34c4df2b75689b34c7df289",
        "count" : 5
      },
      "blogpost" : {
        "schemaUuid" : "dd43341983ee4be583341983ee6be514",
        "count" : 1
      }
    },
    "schema" : {
      "name" : "content",
      "uuid" : "4c3a622c10d34970ba622c10d3297032",
      "version" : "1.0"
    },
    "container" : false,
    "fields" : {
      "name" : "Name for language tag de-DE",
      "filename" : "dummy-content.de.html",
      "teaser" : "Dummy teaser for de-DE",
      "content" : "Content for language tag de-DE",
      "relatedProduct" : {
        "uuid" : "be2eccd2ce4a4ae8aeccd2ce4acae832"
      },
      "price" : 100.1,
      "enabled" : true,
      "branch" : "2018-09-28T11:21:12.628Z",
      "categories" : [ {
        "uuid" : "a7d46e75a022456d946e75a022e56d77"
      }, {
        "uuid" : "2283fde8150a497383fde8150a497309"
      }, {
        "uuid" : "c3f5f8607e3c4777b5f8607e3c177708"
      } ],
      "names" : [ "Jack", "Joe", "Mary", "Tom" ],
      "categoryIds" : [ 1, 42, 133, 7 ],
      "binary" : {
        "fileName" : "flower.jpg",
        "width" : 800,
        "height" : 600,
        "sha512sum" : "ec582eb760034dd91d5fd33656c0b56f082b7365d32e2a139dd9c87ebc192bff3525f32ff4c4137463a31cad020ac19e6e356508db2b90e32d737b6d725e14c1",
        "fileSize" : 95365,
        "mimeType" : "image/jpeg",
        "dominantColor" : "#22a7f0"
      },
      "location" : {
        "uuid" : "fdc4f9ea2b5148d384f9ea2b5158d3d6",
        "microschema" : {
          "name" : "geolocation",
          "uuid" : "46e5b46c74ad42a8a5b46c74ade2a86f"
        },
        "fields" : {
          "latitude" : 48.208330230278,
          "longitude" : 16.373063840833
        }
      },
      "locations" : [ {
        "uuid" : "957ef85f4f0547b7bef85f4f05e7b78e",
        "microschema" : {
          "name" : "geolocation",
          "uuid" : "4e56d67e380c49c596d67e380cd9c51b"
        },
        "fields" : {
          "latitude" : 48.208330230278,
          "longitude" : 16.373063840833
        }
      }, {
        "uuid" : "3d8c9564b7634be58c9564b763cbe523",
        "microschema" : {
          "name" : "geolocation",
          "uuid" : "f3e1452e1a8b4042a1452e1a8b204203"
        },
        "fields" : {
          "latitude" : 48.137222,
          "longitude" : 11.575556
        }
      } ]
    },
    "path" : "/api/v1/yourProject/webroot/Images",
    "breadcrumb" : [ {
      "uuid" : "6d352740e46e439db52740e46ee39d11",
      "displayName" : "news",
      "path" : "/news"
    }, {
      "uuid" : "bc8d70010a364a538d70010a367a5367",
      "displayName" : "2015",
      "path" : "/news/2015"
    } ],
    "permissions" : {
      "create" : true,
      "read" : true,
      "update" : true,
      "delete" : true,
      "publish" : false,
      "readPublished" : false
    }
  }, {
    "uuid" : "fff493cd8e5e457cb493cd8e5e157cba",
    "creator" : {
      "firstName" : "Joe",
      "lastName" : "Doe",
      "uuid" : "3529bd89fdbc4a35a9bd89fdbcca3511"
    },
    "created" : "2018-09-28T11:21:12.628Z",
    "editor" : {
      "firstName" : "Joe",
      "lastName" : "Doe",
      "uuid" : "9cfea8b79e6746f3bea8b79e6746f369"
    },
    "edited" : "2018-09-28T11:21:12.628Z",
    "parentNode" : {
      "uuid" : "cb59edb0e2a04ec699edb0e2a03ec6ff",
      "displayName" : "parentNodeDisplayName"
    },
    "tags" : [ {
      "name" : "red",
      "uuid" : "a9881785204c45f0881785204c55f0cd",
      "tagFamily" : "colors"
    }, {
      "name" : "green",
      "uuid" : "c71ff87e3203434a9ff87e3203034a80",
      "tagFamily" : "colors"
    }, {
      "name" : "car",
      "uuid" : "31620ccc4b3e4b56a20ccc4b3efb5679",
      "tagFamily" : "vehicles"
    }, {
      "name" : "ship",
      "uuid" : "09e6ee8bb3914b16a6ee8bb3917b1631",
      "tagFamily" : "vehicles"
    } ],
    "childrenInfo" : { },
    "schema" : {
      "name" : "content",
      "uuid" : "e8f8916dee5c442bb8916dee5ca42b60",
      "version" : "1.0"
    },
    "container" : false,
    "fields" : {
      "name" : "Name for language tag en",
      "filename" : "dummy-content.en.html",
      "teaser" : "Dummy teaser for en",
      "content" : "Content for language tag en"
    },
    "breadcrumb" : [ {
      "uuid" : "18406e161cfa4481806e161cfa24810e",
      "displayName" : "news",
      "path" : "/news"
    }, {
      "uuid" : "69f0978def67469db0978def67569d71",
      "displayName" : "2015",
      "path" : "/news/2015"
    } ],
    "permissions" : {
      "create" : true,
      "read" : true,
      "update" : false,
      "delete" : false,
      "publish" : false,
      "readPublished" : false
    }
  } ],
  "_metainfo" : {
    "currentPage" : 1,
    "perPage" : 2,
    "pageCount" : 10,
    "totalCount" : 20
  }
}