{
  "data" : [ {
    "uuid" : "c4ddddee098c462a9dddee098c562a9c",
    "creator" : {
      "firstName" : "Joe",
      "lastName" : "Doe",
      "uuid" : "0e798e6d5ded40e2b98e6d5deda0e274"
    },
    "created" : "2018-10-01T14:21:19.708Z",
    "edited" : "2018-10-01T14:21:19.708Z",
    "availableLanguages" : {
      "de" : {
        "published" : true,
        "version" : "1.0",
        "publisher" : {
          "firstName" : "Joe",
          "lastName" : "Doe",
          "uuid" : "e09769e8e7a2411f9769e8e7a2811f45"
        },
        "publishDate" : "2018-10-01T14:21:19.708Z"
      },
      "en" : {
        "published" : false,
        "version" : "1.1",
        "publisher" : {
          "firstName" : "Joe",
          "lastName" : "Doe",
          "uuid" : "3bfff4c827f24f94bff4c827f2bf9456"
        },
        "publishDate" : "2018-10-01T14:21:19.708Z"
      }
    },
    "languagePaths" : {
      "de" : "/api/v1/yourProject/webroot/Bilder",
      "en" : "/api/v1/yourProject/webroot/Images"
    },
    "parentNode" : {
      "uuid" : "dc25630898a44383a5630898a4f38301",
      "displayName" : "parentNodeDisplayName"
    },
    "tags" : [ {
      "name" : "red",
      "uuid" : "99cd5f9366d6436c8d5f9366d6736c62",
      "tagFamily" : "colors"
    }, {
      "name" : "red",
      "uuid" : "7edd2122674846659d21226748466587",
      "tagFamily" : "colors"
    }, {
      "name" : "green",
      "uuid" : "525cbe20e2d04b949cbe20e2d0eb9449",
      "tagFamily" : "colors"
    }, {
      "name" : "car",
      "uuid" : "a2b47cbb2ab447feb47cbb2ab4d7fe77"
    }, {
      "name" : "ship",
      "uuid" : "389def6546f8469d9def6546f8069db6"
    } ],
    "childrenInfo" : {
      "folder" : {
        "schemaUuid" : "337ec861f8fd483fbec861f8fd083f3f",
        "count" : 5
      },
      "blogpost" : {
        "schemaUuid" : "e7db8862b9864c6d9b8862b9864c6d7f",
        "count" : 1
      }
    },
    "schema" : {
      "name" : "content",
      "uuid" : "039a6887124f478e9a6887124fc78ec3",
      "version" : "1.0"
    },
    "container" : false,
    "fields" : {
      "name" : "Name for language tag de-DE",
      "filename" : "dummy-content.de.html",
      "teaser" : "Dummy teaser for de-DE",
      "content" : "Content for language tag de-DE",
      "relatedProduct" : {
        "uuid" : "fd29b4848159431ea9b4848159831eb3"
      },
      "price" : 100.1,
      "enabled" : true,
      "branch" : "2018-10-01T14:21:19.708Z",
      "categories" : [ {
        "uuid" : "7abbb1ed2da44050bbb1ed2da4b050e5"
      }, {
        "uuid" : "af4d25b1f2fe45828d25b1f2fed58217"
      }, {
        "uuid" : "4549c7d3ac74425089c7d3ac746250df"
      } ],
      "names" : [ "Jack", "Joe", "Mary", "Tom" ],
      "categoryIds" : [ 1, 42, 133, 7 ],
      "binary" : {
        "fileName" : "flower.jpg",
        "width" : 800,
        "height" : 600,
        "sha512sum" : "ec582eb760034dd91d5fd33656c0b56f082b7365d32e2a139dd9c87ebc192bff3525f32ff4c4137463a31cad020ac19e6e356508db2b90e32d737b6d725e14c1",
        "fileSize" : 95365,
        "mimeType" : "image/jpeg",
        "dominantColor" : "#22a7f0"
      },
      "location" : {
        "uuid" : "50c0c211c8a94cd580c211c8a9bcd571",
        "microschema" : {
          "name" : "geolocation",
          "uuid" : "116b1dc6c7314551ab1dc6c731055113"
        },
        "fields" : {
          "latitude" : 48.208330230278,
          "longitude" : 16.373063840833
        }
      },
      "locations" : [ {
        "uuid" : "13ecaa8e9b3746f7acaa8e9b37d6f7ce",
        "microschema" : {
          "name" : "geolocation",
          "uuid" : "c3228b89296e4fc6a28b89296e4fc694"
        },
        "fields" : {
          "latitude" : 48.208330230278,
          "longitude" : 16.373063840833
        }
      }, {
        "uuid" : "51bb6f27f4e644ddbb6f27f4e674dd6e",
        "microschema" : {
          "name" : "geolocation",
          "uuid" : "25b757bec14c4beab757bec14cdbea42"
        },
        "fields" : {
          "latitude" : 48.137222,
          "longitude" : 11.575556
        }
      } ]
    },
    "path" : "/api/v1/yourProject/webroot/Images",
    "breadcrumb" : [ {
      "uuid" : "e06b299d3d0a4125ab299d3d0a212501",
      "displayName" : "news",
      "path" : "/news"
    }, {
      "uuid" : "c990fe4e9c67454590fe4e9c679545f2",
      "displayName" : "2015",
      "path" : "/news/2015"
    } ],
    "permissions" : {
      "create" : true,
      "read" : true,
      "update" : true,
      "delete" : true,
      "publish" : false,
      "readPublished" : false
    }
  }, {
    "uuid" : "c6de60bd19e14f489e60bd19e1cf4854",
    "creator" : {
      "firstName" : "Joe",
      "lastName" : "Doe",
      "uuid" : "0bc2e0e4d97e475182e0e4d97e27513e"
    },
    "created" : "2018-10-01T14:21:19.708Z",
    "editor" : {
      "firstName" : "Joe",
      "lastName" : "Doe",
      "uuid" : "93eda70db80d4f63ada70db80dff63c9"
    },
    "edited" : "2018-10-01T14:21:19.708Z",
    "parentNode" : {
      "uuid" : "9626535af3be4a38a6535af3be1a381e",
      "displayName" : "parentNodeDisplayName"
    },
    "tags" : [ {
      "name" : "red",
      "uuid" : "c5a2460bcceb44c0a2460bcceb64c098",
      "tagFamily" : "colors"
    }, {
      "name" : "green",
      "uuid" : "f41f1198350e45bd9f1198350ea5bdf3",
      "tagFamily" : "colors"
    }, {
      "name" : "car",
      "uuid" : "abafeee3dd0d44e9afeee3dd0d14e976",
      "tagFamily" : "vehicles"
    }, {
      "name" : "ship",
      "uuid" : "2a8a06aba60b4a2d8a06aba60b8a2dfd",
      "tagFamily" : "vehicles"
    } ],
    "childrenInfo" : { },
    "schema" : {
      "name" : "content",
      "uuid" : "fecb8c97e38c41278b8c97e38c212798",
      "version" : "1.0"
    },
    "container" : false,
    "fields" : {
      "name" : "Name for language tag en",
      "filename" : "dummy-content.en.html",
      "teaser" : "Dummy teaser for en",
      "content" : "Content for language tag en"
    },
    "breadcrumb" : [ {
      "uuid" : "80fffb6181654fe3bffb618165dfe315",
      "displayName" : "news",
      "path" : "/news"
    }, {
      "uuid" : "6f50be47ee56425e90be47ee56c25edd",
      "displayName" : "2015",
      "path" : "/news/2015"
    } ],
    "permissions" : {
      "create" : true,
      "read" : true,
      "update" : false,
      "delete" : false,
      "publish" : false,
      "readPublished" : false
    }
  } ],
  "_metainfo" : {
    "currentPage" : 1,
    "perPage" : 2,
    "pageCount" : 10,
    "totalCount" : 20
  }
}