{
  "data" : [ {
    "uuid" : "c38d177f29354b508d177f29358b5028",
    "creator" : {
      "firstName" : "Joe",
      "lastName" : "Doe",
      "uuid" : "1079fa33753d43fab9fa33753d73fafd"
    },
    "created" : "2018-09-28T11:21:12.461Z",
    "editor" : {
      "firstName" : "Joe",
      "lastName" : "Doe",
      "uuid" : "f34b1c0f27254b878b1c0f27256b8747"
    },
    "edited" : "2018-09-28T11:21:12.461Z",
    "name" : "Dummy project",
    "rootNode" : {
      "uuid" : "38942157c1304166942157c13001667a"
    },
    "permissions" : {
      "create" : true,
      "read" : true,
      "update" : false,
      "delete" : true,
      "publish" : false,
      "readPublished" : false
    }
  }, {
    "uuid" : "4d50bd81fc144bff90bd81fc142bffed",
    "creator" : {
      "firstName" : "Joe",
      "lastName" : "Doe",
      "uuid" : "b5e15a1719984734a15a171998b73419"
    },
    "created" : "2018-09-28T11:21:12.461Z",
    "editor" : {
      "firstName" : "Joe",
      "lastName" : "Doe",
      "uuid" : "11919dbec0994111919dbec099a111bd"
    },
    "edited" : "2018-09-28T11:21:12.461Z",
    "name" : "Dummy Project (Mobile)",
    "rootNode" : {
      "uuid" : "cf712b9942ee46c3b12b9942ee46c330"
    },
    "permissions" : {
      "create" : true,
      "read" : true,
      "update" : false,
      "delete" : true,
      "publish" : false,
      "readPublished" : false
    }
  } ],
  "_metainfo" : {
    "currentPage" : 1,
    "perPage" : 2,
    "pageCount" : 10,
    "totalCount" : 20
  }
}