{
  "data" : [ {
    "uuid" : "b0fc7080948b4eeabc7080948b0eea68",
    "creator" : {
      "firstName" : "Joe",
      "lastName" : "Doe",
      "uuid" : "0471dc98fc394722b1dc98fc394722ef"
    },
    "created" : "2018-10-19T22:39:58.035Z",
    "edited" : "2018-10-19T22:39:58.035Z",
    "availableLanguages" : {
      "de" : {
        "published" : true,
        "version" : "1.0",
        "publisher" : {
          "firstName" : "Joe",
          "lastName" : "Doe",
          "uuid" : "3e47ca7a065d4c5c87ca7a065d5c5c17"
        },
        "publishDate" : "2018-10-19T22:39:58.035Z"
      },
      "en" : {
        "published" : false,
        "version" : "1.1",
        "publisher" : {
          "firstName" : "Joe",
          "lastName" : "Doe",
          "uuid" : "b4592c75bdac4b48992c75bdaccb4838"
        },
        "publishDate" : "2018-10-19T22:39:58.035Z"
      }
    },
    "languagePaths" : {
      "de" : "/api/v1/yourProject/webroot/Bilder",
      "en" : "/api/v1/yourProject/webroot/Images"
    },
    "parentNode" : {
      "uuid" : "c80b7da57ef84c888b7da57ef85c8819",
      "displayName" : "parentNodeDisplayName"
    },
    "tags" : [ {
      "name" : "red",
      "uuid" : "4db45f321d7d49d4b45f321d7d59d4fe",
      "tagFamily" : "colors"
    }, {
      "name" : "red",
      "uuid" : "883c4165f3284583bc4165f3280583b7",
      "tagFamily" : "colors"
    }, {
      "name" : "green",
      "uuid" : "fe881ca5791e4727881ca5791e97274f",
      "tagFamily" : "colors"
    }, {
      "name" : "car",
      "uuid" : "19a95e1d815e44fea95e1d815ef4febc"
    }, {
      "name" : "ship",
      "uuid" : "c1530013c5a14878930013c5a138789f"
    } ],
    "childrenInfo" : {
      "folder" : {
        "schemaUuid" : "935e95d3366a4c899e95d3366a1c8920",
        "count" : 5
      },
      "blogpost" : {
        "schemaUuid" : "79a8966e4c0c4fdea8966e4c0ccfde71",
        "count" : 1
      }
    },
    "schema" : {
      "name" : "content",
      "uuid" : "d88caf1eaeda4c298caf1eaeda3c2938",
      "version" : "1.0"
    },
    "container" : false,
    "fields" : {
      "name" : "Name for language tag de-DE",
      "filename" : "dummy-content.de.html",
      "teaser" : "Dummy teaser for de-DE",
      "content" : "Content for language tag de-DE",
      "relatedProduct" : {
        "uuid" : "0f43ec9fccf6465a83ec9fccf6b65aaf"
      },
      "price" : 100.1,
      "enabled" : true,
      "branch" : "2018-10-19T22:39:58.035Z",
      "categories" : [ {
        "uuid" : "310f02bb29da47a58f02bb29da57a508"
      }, {
        "uuid" : "8eb8fcf52c974a90b8fcf52c977a90c6"
      }, {
        "uuid" : "186f6437aeb94053af6437aeb9d053ab"
      } ],
      "names" : [ "Jack", "Joe", "Mary", "Tom" ],
      "categoryIds" : [ 1, 42, 133, 7 ],
      "binary" : {
        "fileName" : "flower.jpg",
        "width" : 800,
        "height" : 600,
        "sha512sum" : "ec582eb760034dd91d5fd33656c0b56f082b7365d32e2a139dd9c87ebc192bff3525f32ff4c4137463a31cad020ac19e6e356508db2b90e32d737b6d725e14c1",
        "fileSize" : 95365,
        "mimeType" : "image/jpeg",
        "dominantColor" : "#22a7f0"
      },
      "location" : {
        "uuid" : "05de205a2ee84ac09e205a2ee8aac096",
        "microschema" : {
          "name" : "geolocation",
          "uuid" : "17254249cbd74daba54249cbd70dab12"
        },
        "fields" : {
          "latitude" : 48.208330230278,
          "longitude" : 16.373063840833
        }
      },
      "locations" : [ {
        "uuid" : "cb3710baca9a4fb5b710baca9a5fb5d0",
        "microschema" : {
          "name" : "geolocation",
          "uuid" : "db30faf1086e4f96b0faf1086eef96fe"
        },
        "fields" : {
          "latitude" : 48.208330230278,
          "longitude" : 16.373063840833
        }
      }, {
        "uuid" : "b94dd3b10f6348768dd3b10f63c8764f",
        "microschema" : {
          "name" : "geolocation",
          "uuid" : "ebfdcab331fe498ebdcab331fee98ebf"
        },
        "fields" : {
          "latitude" : 48.137222,
          "longitude" : 11.575556
        }
      } ]
    },
    "path" : "/api/v1/yourProject/webroot/Images",
    "breadcrumb" : [ {
      "uuid" : "43161c49b1fd47ea961c49b1fd77ea6d",
      "displayName" : "news",
      "path" : "/news"
    }, {
      "uuid" : "0135489445f54350b5489445f5f350e4",
      "displayName" : "2015",
      "path" : "/news/2015"
    } ],
    "permissions" : {
      "create" : true,
      "read" : true,
      "update" : true,
      "delete" : true,
      "publish" : false,
      "readPublished" : false
    }
  }, {
    "uuid" : "0d0cc8e000b344578cc8e000b3a457ee",
    "creator" : {
      "firstName" : "Joe",
      "lastName" : "Doe",
      "uuid" : "12b3096461294f33b3096461294f3314"
    },
    "created" : "2018-10-19T22:39:58.035Z",
    "editor" : {
      "firstName" : "Joe",
      "lastName" : "Doe",
      "uuid" : "c47259fc78604eecb259fc7860eeec62"
    },
    "edited" : "2018-10-19T22:39:58.035Z",
    "parentNode" : {
      "uuid" : "2eef11fe45cc4c07af11fe45cc4c07e2",
      "displayName" : "parentNodeDisplayName"
    },
    "tags" : [ {
      "name" : "red",
      "uuid" : "19e5ec6f63ea4d55a5ec6f63ea2d5526",
      "tagFamily" : "colors"
    }, {
      "name" : "green",
      "uuid" : "772b4297d7124d61ab4297d712ed6108",
      "tagFamily" : "colors"
    }, {
      "name" : "car",
      "uuid" : "ba8751f9658e48548751f9658ea854d7",
      "tagFamily" : "vehicles"
    }, {
      "name" : "ship",
      "uuid" : "46994da025804846994da02580c84689",
      "tagFamily" : "vehicles"
    } ],
    "childrenInfo" : { },
    "schema" : {
      "name" : "content",
      "uuid" : "87519618ca024eb7919618ca022eb7b9",
      "version" : "1.0"
    },
    "container" : false,
    "fields" : {
      "name" : "Name for language tag en",
      "filename" : "dummy-content.en.html",
      "teaser" : "Dummy teaser for en",
      "content" : "Content for language tag en"
    },
    "breadcrumb" : [ {
      "uuid" : "6ca000284d3847aba000284d3837abab",
      "displayName" : "news",
      "path" : "/news"
    }, {
      "uuid" : "40f1a9e414584725b1a9e414588725f3",
      "displayName" : "2015",
      "path" : "/news/2015"
    } ],
    "permissions" : {
      "create" : true,
      "read" : true,
      "update" : false,
      "delete" : false,
      "publish" : false,
      "readPublished" : false
    }
  } ],
  "_metainfo" : {
    "currentPage" : 1,
    "perPage" : 2,
    "pageCount" : 10,
    "totalCount" : 20
  }
}