{
  "data" : [ {
    "uuid" : "32a49eada9004535a49eada900453576",
    "creator" : {
      "firstName" : "Joe",
      "lastName" : "Doe",
      "uuid" : "91cb483298d8405f8b483298d8405f5b"
    },
    "created" : "2018-11-07T11:45:49.886960Z",
    "editor" : {
      "firstName" : "Joe",
      "lastName" : "Doe",
      "uuid" : "1750a8106a3840ca90a8106a3810ca30"
    },
    "edited" : "2018-11-07T11:45:49.886980Z",
    "name" : "Dummy project",
    "rootNode" : {
      "uuid" : "3588db4b470b4b4588db4b470b1b45cc"
    },
    "permissions" : {
      "create" : true,
      "read" : true,
      "update" : false,
      "delete" : true,
      "publish" : false,
      "readPublished" : false
    }
  }, {
    "uuid" : "a971bb05c3db487bb1bb05c3db287bb7",
    "creator" : {
      "firstName" : "Joe",
      "lastName" : "Doe",
      "uuid" : "17029715593c4731829715593cd731de"
    },
    "created" : "2018-11-07T11:45:49.887032Z",
    "editor" : {
      "firstName" : "Joe",
      "lastName" : "Doe",
      "uuid" : "da5194d5811648339194d58116783398"
    },
    "edited" : "2018-11-07T11:45:49.887045Z",
    "name" : "Dummy Project (Mobile)",
    "rootNode" : {
      "uuid" : "d76cfaa0ef0742baacfaa0ef07d2ba98"
    },
    "permissions" : {
      "create" : true,
      "read" : true,
      "update" : false,
      "delete" : true,
      "publish" : false,
      "readPublished" : false
    }
  } ],
  "_metainfo" : {
    "currentPage" : 1,
    "perPage" : 2,
    "pageCount" : 10,
    "totalCount" : 20
  }
}