{
  "data" : [ {
    "creator" : {
      "firstName" : "Joe",
      "lastName" : "Doe",
      "uuid" : "770295be06614dfd8295be06618dfdc3"
    },
    "created" : "2018-10-01T14:21:19.620Z",
    "editor" : {
      "firstName" : "Joe",
      "lastName" : "Doe",
      "uuid" : "12d296259546474292962595463742dd"
    },
    "edited" : "2018-10-01T14:21:19.620Z",
    "name" : "Colors",
    "permissions" : {
      "create" : true,
      "read" : true,
      "update" : false,
      "delete" : true,
      "publish" : false,
      "readPublished" : false
    }
  } ],
  "_metainfo" : {
    "currentPage" : 1,
    "perPage" : 2,
    "pageCount" : 10,
    "totalCount" : 20
  }
}