{
  "data" : [ {
    "uuid" : "dc7ac572e2b7439fbac572e2b7039f67",
    "creator" : {
      "firstName" : "Joe",
      "lastName" : "Doe",
      "uuid" : "1a4695d9f4914b4e8695d9f491eb4e17"
    },
    "created" : "2018-10-15T13:59:39.503Z",
    "editor" : {
      "firstName" : "Joe",
      "lastName" : "Doe",
      "uuid" : "4fa0c9161edd41fba0c9161edd71fbcd"
    },
    "edited" : "2018-10-15T13:59:39.503Z",
    "name" : "Admin Group",
    "roles" : [ {
      "name" : "admin",
      "uuid" : "2f0a0045981c47ab8a0045981cb7ab97"
    } ],
    "permissions" : {
      "create" : true,
      "read" : true,
      "update" : true,
      "delete" : true,
      "publish" : false,
      "readPublished" : false
    }
  }, {
    "uuid" : "b31a8adc74c74cbd9a8adc74c7ecbd30",
    "name" : "Editor Group",
    "roles" : [ ],
    "permissions" : {
      "create" : true,
      "read" : true,
      "update" : true,
      "delete" : true,
      "publish" : false,
      "readPublished" : false
    }
  } ],
  "_metainfo" : {
    "currentPage" : 1,
    "perPage" : 2,
    "pageCount" : 10,
    "totalCount" : 20
  }
}