{
  "data" : [ {
    "creator" : {
      "firstName" : "Joe",
      "lastName" : "Doe",
      "uuid" : "158bad862d3f47fa8bad862d3f87fae0"
    },
    "created" : "2018-07-25T12:05:01.150Z",
    "editor" : {
      "firstName" : "Joe",
      "lastName" : "Doe",
      "uuid" : "20ea8dc6c2804955aa8dc6c28079553c"
    },
    "edited" : "2018-07-25T12:05:01.150Z",
    "name" : "Colors",
    "permissions" : {
      "create" : true,
      "read" : true,
      "update" : false,
      "delete" : true,
      "publish" : false,
      "readPublished" : false
    }
  } ],
  "_metainfo" : {
    "currentPage" : 1,
    "perPage" : 2,
    "pageCount" : 10,
    "totalCount" : 20
  }
}