{
  "data" : [ {
    "creator" : {
      "firstName" : "Joe",
      "lastName" : "Doe",
      "uuid" : "4e8f1ce160844ec28f1ce160849ec20a"
    },
    "created" : "2018-07-25T12:05:01.004Z",
    "editor" : {
      "firstName" : "Joe",
      "lastName" : "Doe",
      "uuid" : "78e6bd330c134370a6bd330c13a370f9"
    },
    "edited" : "2018-07-25T12:05:01.004Z",
    "name" : "Colors",
    "permissions" : {
      "create" : true,
      "read" : true,
      "update" : false,
      "delete" : true,
      "publish" : false,
      "readPublished" : false
    }
  } ],
  "_metainfo" : {
    "currentPage" : 1,
    "perPage" : 2,
    "pageCount" : 10,
    "totalCount" : 20
  }
}