{
  "data" : [ {
    "uuid" : "5bf46ea78e88461bb46ea78e88d61b9f",
    "creator" : {
      "firstName" : "Joe",
      "lastName" : "Doe",
      "uuid" : "b71f9179c84340219f9179c843a021e7"
    },
    "created" : "2018-10-03T09:23:07.223Z",
    "editor" : {
      "firstName" : "Joe",
      "lastName" : "Doe",
      "uuid" : "19424ed3cbae4d97824ed3cbaefd97df"
    },
    "edited" : "2018-10-03T09:23:07.223Z",
    "lastname" : "Doe",
    "firstname" : "Joe",
    "username" : "jdoe",
    "emailAddress" : "j.doe@nowhere.com",
    "nodeReference" : {
      "projectName" : "dummy",
      "uuid" : "dbee28d3cb714a0eae28d3cb71ba0ede"
    },
    "enabled" : true,
    "groups" : [ {
      "name" : "editors",
      "uuid" : "cc35031503fc446fb5031503fc546f57"
    } ],
    "permissions" : {
      "create" : true,
      "read" : true,
      "update" : true,
      "delete" : true,
      "publish" : false,
      "readPublished" : false
    }
  }, {
    "uuid" : "53989e9b842248b6989e9b842278b68e",
    "creator" : {
      "firstName" : "Joe",
      "lastName" : "Doe",
      "uuid" : "148eb84674544fbf8eb8467454cfbfaf"
    },
    "created" : "2018-10-03T09:23:07.223Z",
    "editor" : {
      "firstName" : "Joe",
      "lastName" : "Doe",
      "uuid" : "67e974c8ff3a4c7aa974c8ff3a7c7a30"
    },
    "edited" : "2018-10-03T09:23:07.223Z",
    "lastname" : "Roe",
    "firstname" : "Jane",
    "username" : "jroe",
    "emailAddress" : "j.roe@nowhere.com",
    "nodeReference" : {
      "projectName" : "dummy",
      "uuid" : "2122165d6177441fa2165d6177941f28"
    },
    "enabled" : true,
    "groups" : [ {
      "name" : "editors",
      "uuid" : "573d22653e26412ebd22653e26612e95"
    }, {
      "name" : "super-editors",
      "uuid" : "bf9f5403560d42ef9f5403560d42ef03"
    }, {
      "name" : "editors",
      "uuid" : "c5cf80bb096c49ca8f80bb096cc9ca7e"
    } ],
    "permissions" : {
      "create" : true,
      "read" : true,
      "update" : true,
      "delete" : true,
      "publish" : false,
      "readPublished" : false
    }
  } ],
  "_metainfo" : {
    "currentPage" : 1,
    "perPage" : 2,
    "pageCount" : 10,
    "totalCount" : 20
  }
}