{
  "data" : [ {
    "uuid" : "9539f814dc4f4eb5b9f814dc4fdeb517",
    "creator" : {
      "firstName" : "Joe",
      "lastName" : "Doe",
      "uuid" : "090e8ae349d641798e8ae349d6017977"
    },
    "created" : "2018-10-01T14:21:19.657Z",
    "edited" : "2018-10-01T14:21:19.657Z",
    "availableLanguages" : {
      "de" : {
        "published" : true,
        "version" : "1.0",
        "publisher" : {
          "firstName" : "Joe",
          "lastName" : "Doe",
          "uuid" : "9ff243a17c874107b243a17c871107f5"
        },
        "publishDate" : "2018-10-01T14:21:19.657Z"
      },
      "en" : {
        "published" : false,
        "version" : "1.1",
        "publisher" : {
          "firstName" : "Joe",
          "lastName" : "Doe",
          "uuid" : "b6c962b9064d45bc8962b9064dc5bc54"
        },
        "publishDate" : "2018-10-01T14:21:19.657Z"
      }
    },
    "languagePaths" : {
      "de" : "/api/v1/yourProject/webroot/Bilder",
      "en" : "/api/v1/yourProject/webroot/Images"
    },
    "parentNode" : {
      "uuid" : "adb49aa2c4d84841b49aa2c4d8a84180",
      "displayName" : "parentNodeDisplayName"
    },
    "tags" : [ {
      "name" : "red",
      "uuid" : "c62775871c2441c3a775871c2421c3de",
      "tagFamily" : "colors"
    }, {
      "name" : "red",
      "uuid" : "99c00737d7314786800737d73157860a",
      "tagFamily" : "colors"
    }, {
      "name" : "green",
      "uuid" : "2936557d04f944c5b6557d04f904c563",
      "tagFamily" : "colors"
    }, {
      "name" : "car",
      "uuid" : "150758eb869d4d248758eb869d9d2415"
    }, {
      "name" : "ship",
      "uuid" : "885e0b2e7bfa45939e0b2e7bfac593d6"
    } ],
    "childrenInfo" : {
      "folder" : {
        "schemaUuid" : "3024283eaaf748cba4283eaaf7c8cbd5",
        "count" : 5
      },
      "blogpost" : {
        "schemaUuid" : "2d1c384543e64ab39c384543e6bab34a",
        "count" : 1
      }
    },
    "schema" : {
      "name" : "content",
      "uuid" : "89ae4f5d619743d9ae4f5d6197e3d907",
      "version" : "1.0"
    },
    "container" : false,
    "fields" : {
      "name" : "Name for language tag de-DE",
      "filename" : "dummy-content.de.html",
      "teaser" : "Dummy teaser for de-DE",
      "content" : "Content for language tag de-DE",
      "relatedProduct" : {
        "uuid" : "8a5b3cb0e91a4cd59b3cb0e91afcd571"
      },
      "price" : 100.1,
      "enabled" : true,
      "branch" : "2018-10-01T14:21:19.657Z",
      "categories" : [ {
        "uuid" : "3695d4dd607244d495d4dd6072b4d4fb"
      }, {
        "uuid" : "79062d535dad46d5862d535dad56d57d"
      }, {
        "uuid" : "1632fd569f424ba0b2fd569f42aba0df"
      } ],
      "names" : [ "Jack", "Joe", "Mary", "Tom" ],
      "categoryIds" : [ 1, 42, 133, 7 ],
      "binary" : {
        "fileName" : "flower.jpg",
        "width" : 800,
        "height" : 600,
        "sha512sum" : "ec582eb760034dd91d5fd33656c0b56f082b7365d32e2a139dd9c87ebc192bff3525f32ff4c4137463a31cad020ac19e6e356508db2b90e32d737b6d725e14c1",
        "fileSize" : 95365,
        "mimeType" : "image/jpeg",
        "dominantColor" : "#22a7f0"
      },
      "location" : {
        "uuid" : "a74d8ece52fa408e8d8ece52fa808e1a",
        "microschema" : {
          "name" : "geolocation",
          "uuid" : "494910cddc4c4eed8910cddc4c0eed2a"
        },
        "fields" : {
          "latitude" : 48.208330230278,
          "longitude" : 16.373063840833
        }
      },
      "locations" : [ {
        "uuid" : "834ee845cf604d698ee845cf606d6970",
        "microschema" : {
          "name" : "geolocation",
          "uuid" : "d1dc7761742e435a9c7761742e735aed"
        },
        "fields" : {
          "latitude" : 48.208330230278,
          "longitude" : 16.373063840833
        }
      }, {
        "uuid" : "1c13b2dcc8f84e6393b2dcc8f84e634f",
        "microschema" : {
          "name" : "geolocation",
          "uuid" : "0fe2dfdf31674b6fa2dfdf3167ab6fc0"
        },
        "fields" : {
          "latitude" : 48.137222,
          "longitude" : 11.575556
        }
      } ]
    },
    "path" : "/api/v1/yourProject/webroot/Images",
    "breadcrumb" : [ {
      "uuid" : "06f59d1c5e464676b59d1c5e466676b6",
      "displayName" : "news",
      "path" : "/news"
    }, {
      "uuid" : "5ef38624e2774345b38624e277234531",
      "displayName" : "2015",
      "path" : "/news/2015"
    } ],
    "permissions" : {
      "create" : true,
      "read" : true,
      "update" : true,
      "delete" : true,
      "publish" : false,
      "readPublished" : false
    }
  }, {
    "uuid" : "68843d8fa4f4486f843d8fa4f4f86f20",
    "creator" : {
      "firstName" : "Joe",
      "lastName" : "Doe",
      "uuid" : "8ef1e943eb3d427fb1e943eb3d827f01"
    },
    "created" : "2018-10-01T14:21:19.657Z",
    "editor" : {
      "firstName" : "Joe",
      "lastName" : "Doe",
      "uuid" : "935928e2b8b847399928e2b8b8673906"
    },
    "edited" : "2018-10-01T14:21:19.657Z",
    "parentNode" : {
      "uuid" : "095e39ee2c6347039e39ee2c639703bd",
      "displayName" : "parentNodeDisplayName"
    },
    "tags" : [ {
      "name" : "red",
      "uuid" : "fec29d8c3cd94cb9829d8c3cd97cb9a3",
      "tagFamily" : "colors"
    }, {
      "name" : "green",
      "uuid" : "9878ca2678514dd3b8ca2678514dd3c6",
      "tagFamily" : "colors"
    }, {
      "name" : "car",
      "uuid" : "103a32a4d06c43b6ba32a4d06c03b6e7",
      "tagFamily" : "vehicles"
    }, {
      "name" : "ship",
      "uuid" : "78a7b629b8224424a7b629b822b42423",
      "tagFamily" : "vehicles"
    } ],
    "childrenInfo" : { },
    "schema" : {
      "name" : "content",
      "uuid" : "c969289af83a4be2a9289af83a1be27c",
      "version" : "1.0"
    },
    "container" : false,
    "fields" : {
      "name" : "Name for language tag en",
      "filename" : "dummy-content.en.html",
      "teaser" : "Dummy teaser for en",
      "content" : "Content for language tag en"
    },
    "breadcrumb" : [ {
      "uuid" : "b87c11e213d542e8bc11e213d522e8f4",
      "displayName" : "news",
      "path" : "/news"
    }, {
      "uuid" : "3dbaff67dc0e4d06baff67dc0e1d06d9",
      "displayName" : "2015",
      "path" : "/news/2015"
    } ],
    "permissions" : {
      "create" : true,
      "read" : true,
      "update" : false,
      "delete" : false,
      "publish" : false,
      "readPublished" : false
    }
  } ],
  "_metainfo" : {
    "currentPage" : 1,
    "perPage" : 2,
    "pageCount" : 10,
    "totalCount" : 20
  }
}