{
  "data" : [ {
    "uuid" : "15e197a6a83a4e92a197a6a83a8e92a5",
    "creator" : {
      "firstName" : "Joe",
      "lastName" : "Doe",
      "uuid" : "56974b8460e14f30974b8460e1cf307f"
    },
    "created" : "2018-09-28T11:21:12.575Z",
    "editor" : {
      "firstName" : "Joe",
      "lastName" : "Doe",
      "uuid" : "66a5ae11209b4d24a5ae11209b9d24fd"
    },
    "edited" : "2018-09-28T11:21:12.575Z",
    "tagFamily" : {
      "name" : "colors",
      "uuid" : "77ae273bd6d74e41ae273bd6d7ae41a4"
    },
    "name" : "green",
    "permissions" : {
      "create" : true,
      "read" : true,
      "update" : true,
      "delete" : true,
      "publish" : false,
      "readPublished" : false
    }
  }, {
    "uuid" : "8411b8878f3843f691b8878f3873f634",
    "creator" : {
      "firstName" : "Joe",
      "lastName" : "Doe",
      "uuid" : "356b1f162029424bab1f162029524bab"
    },
    "created" : "2018-09-28T11:21:12.575Z",
    "editor" : {
      "firstName" : "Joe",
      "lastName" : "Doe",
      "uuid" : "315949893ba441ce9949893ba451cef6"
    },
    "edited" : "2018-09-28T11:21:12.575Z",
    "tagFamily" : {
      "name" : "colors",
      "uuid" : "7024a93c8fcb43f1a4a93c8fcb93f145"
    },
    "name" : "Name for language tag en",
    "permissions" : {
      "create" : true,
      "read" : true,
      "update" : false,
      "delete" : false,
      "publish" : false,
      "readPublished" : false
    }
  } ],
  "_metainfo" : {
    "currentPage" : 1,
    "perPage" : 2,
    "pageCount" : 10,
    "totalCount" : 20
  }
}