{
  "data" : [ {
    "uuid" : "5d54074f0f3d41fd94074f0f3dd1fd29",
    "creator" : {
      "firstName" : "Joe",
      "lastName" : "Doe",
      "uuid" : "3795d3d6076d4c9f95d3d6076d6c9f2e"
    },
    "created" : "2018-10-31T15:39:16.738Z",
    "edited" : "2018-10-31T15:39:16.738Z",
    "availableLanguages" : {
      "de" : {
        "published" : true,
        "version" : "1.0",
        "publisher" : {
          "firstName" : "Joe",
          "lastName" : "Doe",
          "uuid" : "8178c3f3df8a42f7b8c3f3df8a92f7c7"
        },
        "publishDate" : "2018-10-31T15:39:16.738Z"
      },
      "en" : {
        "published" : false,
        "version" : "1.1",
        "publisher" : {
          "firstName" : "Joe",
          "lastName" : "Doe",
          "uuid" : "50e3dfabbd2a4d44a3dfabbd2a8d44bb"
        },
        "publishDate" : "2018-10-31T15:39:16.738Z"
      }
    },
    "languagePaths" : {
      "de" : "/api/v1/yourProject/webroot/Bilder",
      "en" : "/api/v1/yourProject/webroot/Images"
    },
    "parentNode" : {
      "uuid" : "88a6014fd7af4645a6014fd7af164573",
      "displayName" : "parentNodeDisplayName"
    },
    "tags" : [ {
      "name" : "red",
      "uuid" : "89cea9e9d2d84be48ea9e9d2d81be48a",
      "tagFamily" : "colors"
    }, {
      "name" : "red",
      "uuid" : "84f2740fa60f4277b2740fa60fb277e6",
      "tagFamily" : "colors"
    }, {
      "name" : "green",
      "uuid" : "3d795e30aa0e467ab95e30aa0e567a54",
      "tagFamily" : "colors"
    }, {
      "name" : "car",
      "uuid" : "359439efb2d24c2b9439efb2d22c2b4f"
    }, {
      "name" : "ship",
      "uuid" : "f48b9bca925d4c3a8b9bca925dec3a0e"
    } ],
    "childrenInfo" : {
      "folder" : {
        "schemaUuid" : "96543b35e0e34f86943b35e0e37f864a",
        "count" : 5
      },
      "blogpost" : {
        "schemaUuid" : "173a85d4bac04fceba85d4bac0afce0c",
        "count" : 1
      }
    },
    "schema" : {
      "name" : "content",
      "uuid" : "70111dbce74540fa911dbce745b0fa1d",
      "version" : "1.0"
    },
    "container" : false,
    "fields" : {
      "name" : "Name for language tag de-DE",
      "filename" : "dummy-content.de.html",
      "teaser" : "Dummy teaser for de-DE",
      "content" : "Content for language tag de-DE",
      "relatedProduct" : {
        "uuid" : "89ee24baa9864542ae24baa98605422c"
      },
      "price" : 100.1,
      "enabled" : true,
      "branch" : "2018-10-31T15:39:16.738Z",
      "categories" : [ {
        "uuid" : "27cc1db5fa4146658c1db5fa41d66596"
      }, {
        "uuid" : "58acad94d92d44c6acad94d92df4c63e"
      }, {
        "uuid" : "55bfc32691af4f85bfc32691af3f859a"
      } ],
      "names" : [ "Jack", "Joe", "Mary", "Tom" ],
      "categoryIds" : [ 1, 42, 133, 7 ],
      "binary" : {
        "fileName" : "flower.jpg",
        "width" : 800,
        "height" : 600,
        "sha512sum" : "ec582eb760034dd91d5fd33656c0b56f082b7365d32e2a139dd9c87ebc192bff3525f32ff4c4137463a31cad020ac19e6e356508db2b90e32d737b6d725e14c1",
        "fileSize" : 95365,
        "mimeType" : "image/jpeg",
        "dominantColor" : "#22a7f0"
      },
      "location" : {
        "uuid" : "cef5df75b8bc425bb5df75b8bc525b59",
        "microschema" : {
          "name" : "geolocation",
          "uuid" : "6c40ad9417284b8d80ad9417282b8d6d"
        },
        "fields" : {
          "latitude" : 48.208330230278,
          "longitude" : 16.373063840833
        }
      },
      "locations" : [ {
        "uuid" : "0a2a7cf4eada4cb6aa7cf4eada8cb698",
        "microschema" : {
          "name" : "geolocation",
          "uuid" : "23010f959db04004810f959db020046a"
        },
        "fields" : {
          "latitude" : 48.208330230278,
          "longitude" : 16.373063840833
        }
      }, {
        "uuid" : "1760ae06f05f4eb9a0ae06f05f0eb921",
        "microschema" : {
          "name" : "geolocation",
          "uuid" : "054810a93ede4b098810a93ede2b096d"
        },
        "fields" : {
          "latitude" : 48.137222,
          "longitude" : 11.575556
        }
      } ]
    },
    "path" : "/api/v1/yourProject/webroot/Images",
    "breadcrumb" : [ {
      "uuid" : "93d7799d20cd459e97799d20cdb59e1b",
      "displayName" : "news",
      "path" : "/news"
    }, {
      "uuid" : "0f4384d5e33944a78384d5e33964a73d",
      "displayName" : "2015",
      "path" : "/news/2015"
    } ],
    "permissions" : {
      "create" : true,
      "read" : true,
      "update" : true,
      "delete" : true,
      "publish" : false,
      "readPublished" : false
    }
  }, {
    "uuid" : "dd65a4790e3143b8a5a4790e31c3b80a",
    "creator" : {
      "firstName" : "Joe",
      "lastName" : "Doe",
      "uuid" : "ce80c8bb39f04e5780c8bb39f03e57d7"
    },
    "created" : "2018-10-31T15:39:16.738Z",
    "editor" : {
      "firstName" : "Joe",
      "lastName" : "Doe",
      "uuid" : "689e86d9f39340099e86d9f393d0099e"
    },
    "edited" : "2018-10-31T15:39:16.738Z",
    "parentNode" : {
      "uuid" : "180b174ec1fe46858b174ec1fe368582",
      "displayName" : "parentNodeDisplayName"
    },
    "tags" : [ {
      "name" : "red",
      "uuid" : "1f1573fb904d46c99573fb904d56c973",
      "tagFamily" : "colors"
    }, {
      "name" : "green",
      "uuid" : "c0ca1feec04244708a1feec0426470e6",
      "tagFamily" : "colors"
    }, {
      "name" : "car",
      "uuid" : "7ec38bea215842b8838bea215842b878",
      "tagFamily" : "vehicles"
    }, {
      "name" : "ship",
      "uuid" : "3aebaa5f86924688abaa5f8692d688ce",
      "tagFamily" : "vehicles"
    } ],
    "childrenInfo" : { },
    "schema" : {
      "name" : "content",
      "uuid" : "7739ade2bfd44f91b9ade2bfd4af9106",
      "version" : "1.0"
    },
    "container" : false,
    "fields" : {
      "name" : "Name for language tag en",
      "filename" : "dummy-content.en.html",
      "teaser" : "Dummy teaser for en",
      "content" : "Content for language tag en"
    },
    "breadcrumb" : [ {
      "uuid" : "339e40790e0c443a9e40790e0cb43a6e",
      "displayName" : "news",
      "path" : "/news"
    }, {
      "uuid" : "8f00817958d146fa80817958d146face",
      "displayName" : "2015",
      "path" : "/news/2015"
    } ],
    "permissions" : {
      "create" : true,
      "read" : true,
      "update" : false,
      "delete" : false,
      "publish" : false,
      "readPublished" : false
    }
  } ],
  "_metainfo" : {
    "currentPage" : 1,
    "perPage" : 2,
    "pageCount" : 10,
    "totalCount" : 20
  }
}