{
  "data" : [ {
    "uuid" : "dd7ba6e2d09b43f6bba6e2d09bc3f6b2",
    "creator" : {
      "firstName" : "Joe",
      "lastName" : "Doe",
      "uuid" : "b6685bd11c6d4f1ea85bd11c6d6f1e38"
    },
    "created" : "2018-10-15T13:01:05.871Z",
    "edited" : "2018-10-15T13:01:05.871Z",
    "availableLanguages" : {
      "de" : {
        "published" : true,
        "version" : "1.0",
        "publisher" : {
          "firstName" : "Joe",
          "lastName" : "Doe",
          "uuid" : "b31d393d558049e79d393d558009e749"
        },
        "publishDate" : "2018-10-15T13:01:05.871Z"
      },
      "en" : {
        "published" : false,
        "version" : "1.1",
        "publisher" : {
          "firstName" : "Joe",
          "lastName" : "Doe",
          "uuid" : "bab8010fd69d4032b8010fd69d50327d"
        },
        "publishDate" : "2018-10-15T13:01:05.871Z"
      }
    },
    "languagePaths" : {
      "de" : "/api/v1/yourProject/webroot/Bilder",
      "en" : "/api/v1/yourProject/webroot/Images"
    },
    "parentNode" : {
      "uuid" : "0a6f65352f8f4dbeaf65352f8f6dbe87",
      "displayName" : "parentNodeDisplayName"
    },
    "tags" : [ {
      "name" : "red",
      "uuid" : "6c175dee9bf64c8d975dee9bf64c8d52",
      "tagFamily" : "colors"
    }, {
      "name" : "red",
      "uuid" : "a977f68c781a449ab7f68c781ad49af6",
      "tagFamily" : "colors"
    }, {
      "name" : "green",
      "uuid" : "238dd56a031749fe8dd56a0317f9fe24",
      "tagFamily" : "colors"
    }, {
      "name" : "car",
      "uuid" : "7008eb4ac4534e6088eb4ac4534e60c7"
    }, {
      "name" : "ship",
      "uuid" : "e38c178d350b42a38c178d350bd2a334"
    } ],
    "childrenInfo" : {
      "folder" : {
        "schemaUuid" : "42e1a05106d9427da1a05106d9f27d85",
        "count" : 5
      },
      "blogpost" : {
        "schemaUuid" : "b32fd3cd83d54ce7afd3cd83d59ce7ab",
        "count" : 1
      }
    },
    "schema" : {
      "name" : "content",
      "uuid" : "b1fd7cc29ca44600bd7cc29ca4f600c7",
      "version" : "1.0"
    },
    "container" : false,
    "fields" : {
      "name" : "Name for language tag de-DE",
      "filename" : "dummy-content.de.html",
      "teaser" : "Dummy teaser for de-DE",
      "content" : "Content for language tag de-DE",
      "relatedProduct" : {
        "uuid" : "fcaf4556eb9f41adaf4556eb9f81adc3"
      },
      "price" : 100.1,
      "enabled" : true,
      "branch" : "2018-10-15T13:01:05.871Z",
      "categories" : [ {
        "uuid" : "1f6922badad14436a922badad1843696"
      }, {
        "uuid" : "5048b517a072498a88b517a072298a94"
      }, {
        "uuid" : "db06eb6bb69544a886eb6bb69544a88a"
      } ],
      "names" : [ "Jack", "Joe", "Mary", "Tom" ],
      "categoryIds" : [ 1, 42, 133, 7 ],
      "binary" : {
        "fileName" : "flower.jpg",
        "width" : 800,
        "height" : 600,
        "sha512sum" : "ec582eb760034dd91d5fd33656c0b56f082b7365d32e2a139dd9c87ebc192bff3525f32ff4c4137463a31cad020ac19e6e356508db2b90e32d737b6d725e14c1",
        "fileSize" : 95365,
        "mimeType" : "image/jpeg",
        "dominantColor" : "#22a7f0"
      },
      "location" : {
        "uuid" : "ec28d69116434f2aa8d6911643bf2ae0",
        "microschema" : {
          "name" : "geolocation",
          "uuid" : "4093e8611b9b430293e8611b9b63026a"
        },
        "fields" : {
          "latitude" : 48.208330230278,
          "longitude" : 16.373063840833
        }
      },
      "locations" : [ {
        "uuid" : "d2597732ed3e4bbd997732ed3e2bbd9c",
        "microschema" : {
          "name" : "geolocation",
          "uuid" : "183b1515a8f246febb1515a8f2d6fe05"
        },
        "fields" : {
          "latitude" : 48.208330230278,
          "longitude" : 16.373063840833
        }
      }, {
        "uuid" : "d452d8b10dc7428e92d8b10dc7f28e30",
        "microschema" : {
          "name" : "geolocation",
          "uuid" : "e228aacc54eb46caa8aacc54eb66ca31"
        },
        "fields" : {
          "latitude" : 48.137222,
          "longitude" : 11.575556
        }
      } ]
    },
    "path" : "/api/v1/yourProject/webroot/Images",
    "breadcrumb" : [ {
      "uuid" : "121301c91ce741cc9301c91ce711cca6",
      "displayName" : "news",
      "path" : "/news"
    }, {
      "uuid" : "3bc30a9ccb5f4eda830a9ccb5f1eda0b",
      "displayName" : "2015",
      "path" : "/news/2015"
    } ],
    "permissions" : {
      "create" : true,
      "read" : true,
      "update" : true,
      "delete" : true,
      "publish" : false,
      "readPublished" : false
    }
  }, {
    "uuid" : "7789a05451a24ce089a05451a2bce07c",
    "creator" : {
      "firstName" : "Joe",
      "lastName" : "Doe",
      "uuid" : "cd21e61032674b23a1e61032679b23e9"
    },
    "created" : "2018-10-15T13:01:05.871Z",
    "editor" : {
      "firstName" : "Joe",
      "lastName" : "Doe",
      "uuid" : "2858ec84dd1641a698ec84dd1601a6b2"
    },
    "edited" : "2018-10-15T13:01:05.871Z",
    "parentNode" : {
      "uuid" : "fe8ebd6e2fb24f4f8ebd6e2fb23f4f64",
      "displayName" : "parentNodeDisplayName"
    },
    "tags" : [ {
      "name" : "red",
      "uuid" : "bdf8cc7ba2c444f8b8cc7ba2c4b4f84f",
      "tagFamily" : "colors"
    }, {
      "name" : "green",
      "uuid" : "f8b9e10a42534ae2b9e10a42532ae29b",
      "tagFamily" : "colors"
    }, {
      "name" : "car",
      "uuid" : "28973aff8af54dec973aff8af53dec63",
      "tagFamily" : "vehicles"
    }, {
      "name" : "ship",
      "uuid" : "af7fdba8c7d74945bfdba8c7d7e945bb",
      "tagFamily" : "vehicles"
    } ],
    "childrenInfo" : { },
    "schema" : {
      "name" : "content",
      "uuid" : "a3553331ae1e4883953331ae1e28837f",
      "version" : "1.0"
    },
    "container" : false,
    "fields" : {
      "name" : "Name for language tag en",
      "filename" : "dummy-content.en.html",
      "teaser" : "Dummy teaser for en",
      "content" : "Content for language tag en"
    },
    "breadcrumb" : [ {
      "uuid" : "fed36a7923344b8c936a7923340b8ceb",
      "displayName" : "news",
      "path" : "/news"
    }, {
      "uuid" : "3f97df290d0344d697df290d0394d6fd",
      "displayName" : "2015",
      "path" : "/news/2015"
    } ],
    "permissions" : {
      "create" : true,
      "read" : true,
      "update" : false,
      "delete" : false,
      "publish" : false,
      "readPublished" : false
    }
  } ],
  "_metainfo" : {
    "currentPage" : 1,
    "perPage" : 2,
    "pageCount" : 10,
    "totalCount" : 20
  }
}