{
  "data" : [ {
    "uuid" : "7dccfef25a3c48688cfef25a3c8868dc",
    "creator" : {
      "firstName" : "Joe",
      "lastName" : "Doe",
      "uuid" : "d185f5949bbc43a485f5949bbce3a440"
    },
    "created" : "2018-09-28T11:21:12.369Z",
    "editor" : {
      "firstName" : "Joe",
      "lastName" : "Doe",
      "uuid" : "8be2c86b15a4427ca2c86b15a4327cc5"
    },
    "edited" : "2018-09-28T11:21:12.369Z",
    "name" : "Reader role",
    "groups" : [ ],
    "permissions" : {
      "create" : true,
      "read" : true,
      "update" : true,
      "delete" : true,
      "publish" : false,
      "readPublished" : false
    }
  }, {
    "uuid" : "5ebae27b72824795bae27b728287951d",
    "creator" : {
      "firstName" : "Joe",
      "lastName" : "Doe",
      "uuid" : "7224c7c096ac4724a4c7c096ac57244b"
    },
    "created" : "2018-09-28T11:21:12.370Z",
    "editor" : {
      "firstName" : "Joe",
      "lastName" : "Doe",
      "uuid" : "461d4e209b7c48ea9d4e209b7cb8ea36"
    },
    "edited" : "2018-09-28T11:21:12.370Z",
    "name" : "Admin role",
    "groups" : [ {
      "name" : "editors",
      "uuid" : "8f26b569d5e14559a6b569d5e1e5595a"
    }, {
      "name" : "guests",
      "uuid" : "3754001ba99145b194001ba991e5b114"
    } ],
    "permissions" : {
      "create" : true,
      "read" : true,
      "update" : true,
      "delete" : true,
      "publish" : false,
      "readPublished" : false
    }
  } ],
  "_metainfo" : {
    "currentPage" : 1,
    "perPage" : 2,
    "pageCount" : 10,
    "totalCount" : 20
  }
}