{
  "data" : [ {
    "uuid" : "15b5c2ec19134e6bb5c2ec19138e6bd2",
    "creator" : {
      "firstName" : "Joe",
      "lastName" : "Doe",
      "uuid" : "7cd30200d0634092930200d063109261"
    },
    "created" : "2018-07-25T12:05:00.918Z",
    "editor" : {
      "firstName" : "Joe",
      "lastName" : "Doe",
      "uuid" : "2cdd175a6dbd43bd9d175a6dbd23bdc5"
    },
    "edited" : "2018-07-25T12:05:00.918Z",
    "name" : "Admin Group",
    "roles" : [ {
      "name" : "admin",
      "uuid" : "7054c408e74b4be594c408e74b4be59a"
    } ],
    "permissions" : {
      "create" : true,
      "read" : true,
      "update" : true,
      "delete" : true,
      "publish" : false,
      "readPublished" : false
    }
  }, {
    "uuid" : "d681ed7e656a491181ed7e656a19119e",
    "name" : "Editor Group",
    "roles" : [ ],
    "permissions" : {
      "create" : true,
      "read" : true,
      "update" : true,
      "delete" : true,
      "publish" : false,
      "readPublished" : false
    }
  } ],
  "_metainfo" : {
    "currentPage" : 1,
    "perPage" : 2,
    "pageCount" : 10,
    "totalCount" : 20
  }
}