{
  "data" : [ {
    "uuid" : "25c3806dd26144da83806dd261c4da42",
    "creator" : {
      "firstName" : "Joe",
      "lastName" : "Doe",
      "uuid" : "05003f365b244499803f365b249499b0"
    },
    "created" : "2018-07-25T12:05:01.052Z",
    "edited" : "2018-07-25T12:05:01.052Z",
    "availableLanguages" : {
      "de" : {
        "published" : true,
        "version" : "1.0",
        "publisher" : {
          "firstName" : "Joe",
          "lastName" : "Doe",
          "uuid" : "0decd6dad86743cbacd6dad867f3cbc7"
        },
        "publishDate" : "2018-07-25T12:05:01.052Z"
      },
      "en" : {
        "published" : false,
        "version" : "1.1",
        "publisher" : {
          "firstName" : "Joe",
          "lastName" : "Doe",
          "uuid" : "3b04b57d13c04f2884b57d13c0bf28bb"
        },
        "publishDate" : "2018-07-25T12:05:01.052Z"
      }
    },
    "languagePaths" : {
      "de" : "/api/v1/yourProject/webroot/Bilder",
      "en" : "/api/v1/yourProject/webroot/Images"
    },
    "parentNode" : {
      "uuid" : "046ce738fd1f490bace738fd1f190b68",
      "displayName" : "parentNodeDisplayName"
    },
    "tags" : [ {
      "name" : "red",
      "uuid" : "18c581ccc2cf49da8581ccc2cf39daa9",
      "tagFamily" : "colors"
    }, {
      "name" : "red",
      "uuid" : "0f5591b9aacf453a9591b9aacfd53aaf",
      "tagFamily" : "colors"
    }, {
      "name" : "green",
      "uuid" : "2639fcce766f4e98b9fcce766ffe9894",
      "tagFamily" : "colors"
    }, {
      "name" : "car",
      "uuid" : "869e84d28ecf45839e84d28ecfe58399"
    }, {
      "name" : "ship",
      "uuid" : "bcde9d6f303c49f49e9d6f303c69f46b"
    } ],
    "childrenInfo" : {
      "folder" : {
        "schemaUuid" : "224b94b53a704b548b94b53a708b54e3",
        "count" : 5
      },
      "blogpost" : {
        "schemaUuid" : "9eac341d39664e6eac341d39667e6e69",
        "count" : 1
      }
    },
    "schema" : {
      "name" : "content",
      "uuid" : "11fa61dea27f4451ba61dea27f24511d",
      "version" : "1.0"
    },
    "container" : false,
    "fields" : {
      "name" : "Name for language tag de-DE",
      "filename" : "dummy-content.de.html",
      "teaser" : "Dummy teaser for de-DE",
      "content" : "Content for language tag de-DE",
      "relatedProduct" : {
        "uuid" : "f70dbe66df68475d8dbe66df68275d90"
      },
      "price" : 100.1,
      "enabled" : true,
      "branch" : "2018-07-25T12:05:01.052Z",
      "categories" : [ {
        "uuid" : "86ff68c88c9e4523bf68c88c9ef52325"
      }, {
        "uuid" : "fcc6fe0811294c8586fe081129dc85d8"
      }, {
        "uuid" : "f85aeae44e59465b9aeae44e59f65bfa"
      } ],
      "names" : [ "Jack", "Joe", "Mary", "Tom" ],
      "categoryIds" : [ 1, 42, 133, 7 ],
      "binary" : {
        "fileName" : "flower.jpg",
        "width" : 800,
        "height" : 600,
        "sha512sum" : "ec582eb760034dd91d5fd33656c0b56f082b7365d32e2a139dd9c87ebc192bff3525f32ff4c4137463a31cad020ac19e6e356508db2b90e32d737b6d725e14c1",
        "fileSize" : 95365,
        "mimeType" : "image/jpeg",
        "dominantColor" : "#22a7f0"
      },
      "location" : {
        "uuid" : "9b428a0a16114412828a0a1611641288",
        "microschema" : {
          "name" : "geolocation",
          "uuid" : "38ca32b9b84541838a32b9b845218310"
        },
        "fields" : {
          "latitude" : 48.208330230278,
          "longitude" : 16.373063840833
        }
      },
      "locations" : [ {
        "uuid" : "d37da0284b374a16bda0284b375a169b",
        "microschema" : {
          "name" : "geolocation",
          "uuid" : "4dfd4b09d9ef490abd4b09d9ef890a90"
        },
        "fields" : {
          "latitude" : 48.208330230278,
          "longitude" : 16.373063840833
        }
      }, {
        "uuid" : "d83e86610eec4163be86610eeca163f1",
        "microschema" : {
          "name" : "geolocation",
          "uuid" : "289783a6154e414b9783a6154e614bab"
        },
        "fields" : {
          "latitude" : 48.137222,
          "longitude" : 11.575556
        }
      } ]
    },
    "path" : "/api/v1/yourProject/webroot/Images",
    "breadcrumb" : [ {
      "uuid" : "d2b82a7870804235b82a7870802235af",
      "displayName" : "news",
      "path" : "/news"
    }, {
      "uuid" : "41a9a8cefd6f4b53a9a8cefd6f3b53e3",
      "displayName" : "2015",
      "path" : "/news/2015"
    } ],
    "permissions" : {
      "create" : true,
      "read" : true,
      "update" : true,
      "delete" : true,
      "publish" : false,
      "readPublished" : false
    }
  }, {
    "uuid" : "79d984db93dd47b79984db93dda7b7bc",
    "creator" : {
      "firstName" : "Joe",
      "lastName" : "Doe",
      "uuid" : "63113dca7fea4966913dca7fea4966d5"
    },
    "created" : "2018-07-25T12:05:01.052Z",
    "editor" : {
      "firstName" : "Joe",
      "lastName" : "Doe",
      "uuid" : "72f1a351762d4129b1a351762de12929"
    },
    "edited" : "2018-07-25T12:05:01.052Z",
    "parentNode" : {
      "uuid" : "c987ea1626fb494187ea1626fb494130",
      "displayName" : "parentNodeDisplayName"
    },
    "tags" : [ {
      "name" : "red",
      "uuid" : "214495bf59694e1e8495bf5969be1ee5",
      "tagFamily" : "colors"
    }, {
      "name" : "green",
      "uuid" : "ab771bdab3134ce4b71bdab3139ce4be",
      "tagFamily" : "colors"
    }, {
      "name" : "car",
      "uuid" : "3033879e6d234bb8b3879e6d236bb893",
      "tagFamily" : "vehicles"
    }, {
      "name" : "ship",
      "uuid" : "f1e693df5cfa4fdca693df5cfabfdcd0",
      "tagFamily" : "vehicles"
    } ],
    "childrenInfo" : { },
    "schema" : {
      "name" : "content",
      "uuid" : "902362de6e294137a362de6e29513763",
      "version" : "1.0"
    },
    "container" : false,
    "fields" : {
      "name" : "Name for language tag en",
      "filename" : "dummy-content.en.html",
      "teaser" : "Dummy teaser for en",
      "content" : "Content for language tag en"
    },
    "breadcrumb" : [ {
      "uuid" : "933a7fcfed3549ffba7fcfed3539ff68",
      "displayName" : "news",
      "path" : "/news"
    }, {
      "uuid" : "4b45891c149e4d7d85891c149e7d7dc7",
      "displayName" : "2015",
      "path" : "/news/2015"
    } ],
    "permissions" : {
      "create" : true,
      "read" : true,
      "update" : false,
      "delete" : false,
      "publish" : false,
      "readPublished" : false
    }
  } ],
  "_metainfo" : {
    "currentPage" : 1,
    "perPage" : 2,
    "pageCount" : 10,
    "totalCount" : 20
  }
}