{
  "data" : [ {
    "creator" : {
      "firstName" : "Joe",
      "lastName" : "Doe",
      "uuid" : "a0e3e31283e64218a3e31283e6e218cd"
    },
    "created" : "2018-09-28T11:21:12.574Z",
    "editor" : {
      "firstName" : "Joe",
      "lastName" : "Doe",
      "uuid" : "32aadbddd9dc4494aadbddd9dc2494a2"
    },
    "edited" : "2018-09-28T11:21:12.574Z",
    "name" : "Colors",
    "permissions" : {
      "create" : true,
      "read" : true,
      "update" : false,
      "delete" : true,
      "publish" : false,
      "readPublished" : false
    }
  } ],
  "_metainfo" : {
    "currentPage" : 1,
    "perPage" : 2,
    "pageCount" : 10,
    "totalCount" : 20
  }
}