{
  "data" : [ {
    "creator" : {
      "firstName" : "Joe",
      "lastName" : "Doe",
      "uuid" : "9b413a7176a847a3813a7176a807a3e5"
    },
    "created" : "2018-09-28T11:21:12.629Z",
    "editor" : {
      "firstName" : "Joe",
      "lastName" : "Doe",
      "uuid" : "12a8c1f2f86d4a1da8c1f2f86dea1dcc"
    },
    "edited" : "2018-09-28T11:21:12.629Z",
    "name" : "Colors",
    "permissions" : {
      "create" : true,
      "read" : true,
      "update" : false,
      "delete" : true,
      "publish" : false,
      "readPublished" : false
    }
  } ],
  "_metainfo" : {
    "currentPage" : 1,
    "perPage" : 2,
    "pageCount" : 10,
    "totalCount" : 20
  }
}