{
  "data" : [ {
    "uuid" : "0ac09ecf65cd4872809ecf65cd5872ae",
    "creator" : {
      "firstName" : "Joe",
      "lastName" : "Doe",
      "uuid" : "f3494c267698448e894c267698648e26"
    },
    "created" : "2018-11-07T12:35:02.393Z",
    "editor" : {
      "firstName" : "Joe",
      "lastName" : "Doe",
      "uuid" : "29188bfa69214c7d988bfa69211c7d2a"
    },
    "edited" : "2018-11-07T12:35:02.393Z",
    "tagFamily" : {
      "name" : "colors",
      "uuid" : "903f7ceb42ef451abf7ceb42efa51abd"
    },
    "name" : "green",
    "permissions" : {
      "create" : true,
      "read" : true,
      "update" : true,
      "delete" : true,
      "publish" : false,
      "readPublished" : false
    }
  }, {
    "uuid" : "d9425638a02745f7825638a027f5f711",
    "creator" : {
      "firstName" : "Joe",
      "lastName" : "Doe",
      "uuid" : "f45050158c2b4d0c9050158c2b1d0c2f"
    },
    "created" : "2018-11-07T12:35:02.393Z",
    "editor" : {
      "firstName" : "Joe",
      "lastName" : "Doe",
      "uuid" : "ad72b906f9074686b2b906f907368688"
    },
    "edited" : "2018-11-07T12:35:02.393Z",
    "tagFamily" : {
      "name" : "colors",
      "uuid" : "0d51a31f97c6468f91a31f97c6a68f2c"
    },
    "name" : "Name for language tag en",
    "permissions" : {
      "create" : true,
      "read" : true,
      "update" : false,
      "delete" : false,
      "publish" : false,
      "readPublished" : false
    }
  } ],
  "_metainfo" : {
    "currentPage" : 1,
    "perPage" : 2,
    "pageCount" : 10,
    "totalCount" : 20
  }
}