{
  "data" : [ {
    "uuid" : "3548bf9930a0416e88bf9930a0e16e45",
    "creator" : {
      "firstName" : "Joe",
      "lastName" : "Doe",
      "uuid" : "601d4ef8741a43b59d4ef8741a23b58b"
    },
    "created" : "2018-09-28T11:21:12.460Z",
    "editor" : {
      "firstName" : "Joe",
      "lastName" : "Doe",
      "uuid" : "3f278b53a3fb44cca78b53a3fb64ccfc"
    },
    "edited" : "2018-09-28T11:21:12.460Z",
    "tagFamily" : {
      "name" : "colors",
      "uuid" : "d8284e0c06204321a84e0c0620d32159"
    },
    "name" : "green",
    "permissions" : {
      "create" : true,
      "read" : true,
      "update" : true,
      "delete" : true,
      "publish" : false,
      "readPublished" : false
    }
  }, {
    "uuid" : "08256e0a4fa54e4ba56e0a4fa59e4b9a",
    "creator" : {
      "firstName" : "Joe",
      "lastName" : "Doe",
      "uuid" : "1b59596c7798444a99596c7798d44a7a"
    },
    "created" : "2018-09-28T11:21:12.460Z",
    "editor" : {
      "firstName" : "Joe",
      "lastName" : "Doe",
      "uuid" : "e0e6046b33ef424ba6046b33ef124bdd"
    },
    "edited" : "2018-09-28T11:21:12.460Z",
    "tagFamily" : {
      "name" : "colors",
      "uuid" : "504e3e7ea0e04b928e3e7ea0e08b92ed"
    },
    "name" : "Name for language tag en",
    "permissions" : {
      "create" : true,
      "read" : true,
      "update" : false,
      "delete" : false,
      "publish" : false,
      "readPublished" : false
    }
  } ],
  "_metainfo" : {
    "currentPage" : 1,
    "perPage" : 2,
    "pageCount" : 10,
    "totalCount" : 20
  }
}