{
  "data" : [ {
    "uuid" : "a6b875a8ed8a40c5b875a8ed8a80c52e",
    "creator" : {
      "firstName" : "Joe",
      "lastName" : "Doe",
      "uuid" : "f100dafccc9c40a480dafccc9cb0a449"
    },
    "created" : "2018-10-08T15:43:26.309Z",
    "editor" : {
      "firstName" : "Joe",
      "lastName" : "Doe",
      "uuid" : "7646f51ebec4428b86f51ebec4928bcc"
    },
    "edited" : "2018-10-08T15:43:26.309Z",
    "name" : "Dummy project",
    "rootNode" : {
      "uuid" : "721b53eee94d40e39b53eee94d10e309"
    },
    "permissions" : {
      "create" : true,
      "read" : true,
      "update" : false,
      "delete" : true,
      "publish" : false,
      "readPublished" : false
    }
  }, {
    "uuid" : "1d920a5727ff451d920a5727ffd51dcc",
    "creator" : {
      "firstName" : "Joe",
      "lastName" : "Doe",
      "uuid" : "a70830f8b73244758830f8b732a475f1"
    },
    "created" : "2018-10-08T15:43:26.309Z",
    "editor" : {
      "firstName" : "Joe",
      "lastName" : "Doe",
      "uuid" : "69c7f09461fb4d6d87f09461fb3d6d71"
    },
    "edited" : "2018-10-08T15:43:26.309Z",
    "name" : "Dummy Project (Mobile)",
    "rootNode" : {
      "uuid" : "93f01c6b98594e72b01c6b98591e721d"
    },
    "permissions" : {
      "create" : true,
      "read" : true,
      "update" : false,
      "delete" : true,
      "publish" : false,
      "readPublished" : false
    }
  } ],
  "_metainfo" : {
    "currentPage" : 1,
    "perPage" : 2,
    "pageCount" : 10,
    "totalCount" : 20
  }
}