{
  "data" : [ {
    "uuid" : "585ce3e6e4bc4c679ce3e6e4bccc67a6",
    "creator" : {
      "firstName" : "Joe",
      "lastName" : "Doe",
      "uuid" : "86365af8cf2b46e8b65af8cf2b36e808"
    },
    "created" : "2018-11-07T12:35:02.416Z",
    "editor" : {
      "firstName" : "Joe",
      "lastName" : "Doe",
      "uuid" : "707197cc36d445c5b197cc36d425c525"
    },
    "edited" : "2018-11-07T12:35:02.416Z",
    "tagFamily" : {
      "name" : "colors",
      "uuid" : "0a06f557044f403986f557044f00395c"
    },
    "name" : "green",
    "permissions" : {
      "create" : true,
      "read" : true,
      "update" : true,
      "delete" : true,
      "publish" : false,
      "readPublished" : false
    }
  }, {
    "uuid" : "48facac683f24a31bacac683f21a316d",
    "creator" : {
      "firstName" : "Joe",
      "lastName" : "Doe",
      "uuid" : "594f4d6a7fee46d28f4d6a7feea6d2aa"
    },
    "created" : "2018-11-07T12:35:02.416Z",
    "editor" : {
      "firstName" : "Joe",
      "lastName" : "Doe",
      "uuid" : "6422f3d9d06643b5a2f3d9d066b3b532"
    },
    "edited" : "2018-11-07T12:35:02.416Z",
    "tagFamily" : {
      "name" : "colors",
      "uuid" : "7dd9cbbb71e745b699cbbb71e7b5b61b"
    },
    "name" : "Name for language tag en",
    "permissions" : {
      "create" : true,
      "read" : true,
      "update" : false,
      "delete" : false,
      "publish" : false,
      "readPublished" : false
    }
  } ],
  "_metainfo" : {
    "currentPage" : 1,
    "perPage" : 2,
    "pageCount" : 10,
    "totalCount" : 20
  }
}