{
  "data" : [ {
    "uuid" : "567d0cc077d0497dbd0cc077d0797d4e",
    "creator" : {
      "firstName" : "Joe",
      "lastName" : "Doe",
      "uuid" : "ca6aaa1ccdd44165aaaa1ccdd4a16547"
    },
    "created" : "2018-07-25T12:05:00.933Z",
    "editor" : {
      "firstName" : "Joe",
      "lastName" : "Doe",
      "uuid" : "0d16e648bcaf46b496e648bcaf56b41f"
    },
    "edited" : "2018-07-25T12:05:00.933Z",
    "name" : "Dummy project",
    "rootNode" : {
      "uuid" : "a9d80c56de8a4a48980c56de8aba48df"
    },
    "permissions" : {
      "create" : true,
      "read" : true,
      "update" : false,
      "delete" : true,
      "publish" : false,
      "readPublished" : false
    }
  }, {
    "uuid" : "e79108a36d3047489108a36d30b748bc",
    "creator" : {
      "firstName" : "Joe",
      "lastName" : "Doe",
      "uuid" : "a41677ff1ccf4ae99677ff1ccfeae94b"
    },
    "created" : "2018-07-25T12:05:00.933Z",
    "editor" : {
      "firstName" : "Joe",
      "lastName" : "Doe",
      "uuid" : "0d8511802c7644a38511802c76b4a3a9"
    },
    "edited" : "2018-07-25T12:05:00.933Z",
    "name" : "Dummy Project (Mobile)",
    "rootNode" : {
      "uuid" : "bd56ae9a351f480796ae9a351f18074c"
    },
    "permissions" : {
      "create" : true,
      "read" : true,
      "update" : false,
      "delete" : true,
      "publish" : false,
      "readPublished" : false
    }
  } ],
  "_metainfo" : {
    "currentPage" : 1,
    "perPage" : 2,
    "pageCount" : 10,
    "totalCount" : 20
  }
}