{
  "data" : [ {
    "uuid" : "ac6d1c5d9e284f30ad1c5d9e282f30f6",
    "creator" : {
      "firstName" : "Joe",
      "lastName" : "Doe",
      "uuid" : "7f3e84e6169a40c6be84e6169ae0c6d8"
    },
    "created" : "2018-10-01T14:21:19.546Z",
    "editor" : {
      "firstName" : "Joe",
      "lastName" : "Doe",
      "uuid" : "18a62af2514f4ae1a62af2514ffae1b1"
    },
    "edited" : "2018-10-01T14:21:19.546Z",
    "name" : "Admin Group",
    "roles" : [ {
      "name" : "admin",
      "uuid" : "3225682077714495a568207771a495af"
    } ],
    "permissions" : {
      "create" : true,
      "read" : true,
      "update" : true,
      "delete" : true,
      "publish" : false,
      "readPublished" : false
    }
  }, {
    "uuid" : "4ed9f6cfabeb4a2f99f6cfabebca2fb8",
    "name" : "Editor Group",
    "roles" : [ ],
    "permissions" : {
      "create" : true,
      "read" : true,
      "update" : true,
      "delete" : true,
      "publish" : false,
      "readPublished" : false
    }
  } ],
  "_metainfo" : {
    "currentPage" : 1,
    "perPage" : 2,
    "pageCount" : 10,
    "totalCount" : 20
  }
}