{
  "data" : [ {
    "uuid" : "a33e278e71314be2be278e71318be2b1",
    "version" : "1.0",
    "description" : "Microschema for Geolocations",
    "name" : "geolocation",
    "fields" : [ {
      "name" : "longitude",
      "label" : "Longitude",
      "required" : true,
      "type" : "number"
    }, {
      "name" : "latitude",
      "label" : "Latitude",
      "required" : true,
      "type" : "number"
    } ],
    "permissions" : {
      "create" : true,
      "read" : true,
      "update" : true,
      "delete" : true,
      "publish" : false,
      "readPublished" : false
    }
  }, {
    "uuid" : "619eb2bf197241269eb2bf1972e1262a",
    "version" : "1.0",
    "description" : "Microschema for Geolocations",
    "name" : "geolocation",
    "fields" : [ {
      "name" : "longitude",
      "label" : "Longitude",
      "required" : true,
      "type" : "number"
    }, {
      "name" : "latitude",
      "label" : "Latitude",
      "required" : true,
      "type" : "number"
    } ],
    "permissions" : {
      "create" : true,
      "read" : true,
      "update" : true,
      "delete" : true,
      "publish" : false,
      "readPublished" : false
    }
  } ],
  "_metainfo" : {
    "currentPage" : 1,
    "perPage" : 2,
    "pageCount" : 10,
    "totalCount" : 20
  }
}