{
  "data" : [ {
    "uuid" : "d3b1840b01464b54b1840b0146cb54f5",
    "creator" : {
      "firstName" : "Joe",
      "lastName" : "Doe",
      "uuid" : "589319933be24ec79319933be24ec7fe"
    },
    "created" : "2018-10-12T14:15:06.024Z",
    "editor" : {
      "firstName" : "Joe",
      "lastName" : "Doe",
      "uuid" : "589319933be24ec79319933be24ec7fe"
    },
    "edited" : "2018-11-20T20:12:01.084Z",
    "name" : "Dummy project",
    "rootNode" : {
      "uuid" : "adaf48da8c124049af48da8c12a0493e"
    },
    "permissions" : {
      "create" : true,
      "read" : true,
      "update" : false,
      "delete" : true,
      "publish" : false,
      "readPublished" : false
    }
  }, {
    "uuid" : "217f8c981ada4642bf8c981adaa642c3",
    "creator" : {
      "firstName" : "Joe",
      "lastName" : "Doe",
      "uuid" : "589319933be24ec79319933be24ec7fe"
    },
    "created" : "2018-10-12T14:15:06.024Z",
    "editor" : {
      "firstName" : "Joe",
      "lastName" : "Doe",
      "uuid" : "589319933be24ec79319933be24ec7fe"
    },
    "edited" : "2018-11-20T20:12:01.084Z",
    "name" : "Dummy Project (Mobile)",
    "rootNode" : {
      "uuid" : "adaf48da8c124049af48da8c12a0493e"
    },
    "permissions" : {
      "create" : true,
      "read" : true,
      "update" : false,
      "delete" : true,
      "publish" : false,
      "readPublished" : false
    }
  } ],
  "_metainfo" : {
    "currentPage" : 1,
    "perPage" : 2,
    "pageCount" : 10,
    "totalCount" : 20
  }
}