{
  "data" : [ {
    "uuid" : "f33c624b61174865bc624b6117a86583",
    "creator" : {
      "firstName" : "Joe",
      "lastName" : "Doe",
      "uuid" : "8323a50d33ef4a51a3a50d33ef2a5164"
    },
    "created" : "2018-09-28T11:21:12.457Z",
    "editor" : {
      "firstName" : "Joe",
      "lastName" : "Doe",
      "uuid" : "21eee10040254027aee10040258027b3"
    },
    "edited" : "2018-09-28T11:21:12.457Z",
    "lastname" : "Doe",
    "firstname" : "Joe",
    "username" : "jdoe",
    "emailAddress" : "j.doe@nowhere.com",
    "nodeReference" : {
      "projectName" : "dummy",
      "uuid" : "f5a03d075962442ca03d075962942c6c"
    },
    "enabled" : true,
    "groups" : [ {
      "name" : "editors",
      "uuid" : "bd2d968d2c754862ad968d2c75686268"
    } ],
    "permissions" : {
      "create" : true,
      "read" : true,
      "update" : true,
      "delete" : true,
      "publish" : false,
      "readPublished" : false
    }
  }, {
    "uuid" : "fbc2c93b194c493a82c93b194c393a4b",
    "creator" : {
      "firstName" : "Joe",
      "lastName" : "Doe",
      "uuid" : "90994b3e847744a3994b3e8477c4a3ad"
    },
    "created" : "2018-09-28T11:21:12.457Z",
    "editor" : {
      "firstName" : "Joe",
      "lastName" : "Doe",
      "uuid" : "60a9d27abbf74f8fa9d27abbf73f8f3e"
    },
    "edited" : "2018-09-28T11:21:12.457Z",
    "lastname" : "Roe",
    "firstname" : "Jane",
    "username" : "jroe",
    "emailAddress" : "j.roe@nowhere.com",
    "nodeReference" : {
      "projectName" : "dummy",
      "uuid" : "a71811c78728412b9811c78728412b66"
    },
    "enabled" : true,
    "groups" : [ {
      "name" : "editors",
      "uuid" : "058d1bf949fc44968d1bf949fcd4965c"
    }, {
      "name" : "super-editors",
      "uuid" : "6312e4df7c4743a592e4df7c4713a513"
    }, {
      "name" : "editors",
      "uuid" : "65ed7e82078a4449ad7e82078ac44917"
    } ],
    "permissions" : {
      "create" : true,
      "read" : true,
      "update" : true,
      "delete" : true,
      "publish" : false,
      "readPublished" : false
    }
  } ],
  "_metainfo" : {
    "currentPage" : 1,
    "perPage" : 2,
    "pageCount" : 10,
    "totalCount" : 20
  }
}