{
  "data" : [ {
    "uuid" : "5a023107003c4968823107003c796873",
    "creator" : {
      "firstName" : "Joe",
      "lastName" : "Doe",
      "uuid" : "5729c3ff575843d5a9c3ff575873d5c5"
    },
    "created" : "2018-10-01T12:39:07.505Z",
    "editor" : {
      "firstName" : "Joe",
      "lastName" : "Doe",
      "uuid" : "a376ee81ca9549a3b6ee81ca9579a39a"
    },
    "edited" : "2018-10-01T12:39:07.505Z",
    "name" : "Reader role",
    "groups" : [ ],
    "permissions" : {
      "create" : true,
      "read" : true,
      "update" : true,
      "delete" : true,
      "publish" : false,
      "readPublished" : false
    }
  }, {
    "uuid" : "cfebe05d402b4181abe05d402b91810e",
    "creator" : {
      "firstName" : "Joe",
      "lastName" : "Doe",
      "uuid" : "dbc9d5758bea4d8589d5758bea0d8508"
    },
    "created" : "2018-10-01T12:39:07.505Z",
    "editor" : {
      "firstName" : "Joe",
      "lastName" : "Doe",
      "uuid" : "ed82fc17e1df449b82fc17e1df049bd6"
    },
    "edited" : "2018-10-01T12:39:07.505Z",
    "name" : "Admin role",
    "groups" : [ {
      "name" : "editors",
      "uuid" : "2324fd0e36404095a4fd0e364020954f"
    }, {
      "name" : "guests",
      "uuid" : "b52fdf0933ad404fafdf0933ad004f55"
    } ],
    "permissions" : {
      "create" : true,
      "read" : true,
      "update" : true,
      "delete" : true,
      "publish" : false,
      "readPublished" : false
    }
  } ],
  "_metainfo" : {
    "currentPage" : 1,
    "perPage" : 2,
    "pageCount" : 10,
    "totalCount" : 20
  }
}