{
  "data" : [ {
    "uuid" : "cab1e2fb88104b49b1e2fb8810fb4909",
    "creator" : {
      "firstName" : "Joe",
      "lastName" : "Doe",
      "uuid" : "88a24bf4c1a04357a24bf4c1a04357d0"
    },
    "created" : "2018-07-25T12:05:00.914Z",
    "editor" : {
      "firstName" : "Joe",
      "lastName" : "Doe",
      "uuid" : "fd2942347ca8425ca942347ca8525c6a"
    },
    "edited" : "2018-07-25T12:05:00.914Z",
    "lastname" : "Doe",
    "firstname" : "Joe",
    "username" : "jdoe",
    "emailAddress" : "j.doe@nowhere.com",
    "nodeReference" : {
      "projectName" : "dummy",
      "uuid" : "4d5d4efdede6481d9d4efdede6581dcb"
    },
    "enabled" : true,
    "groups" : [ {
      "name" : "editors",
      "uuid" : "4f76050fe4994094b6050fe499e09430"
    } ],
    "permissions" : {
      "create" : true,
      "read" : true,
      "update" : true,
      "delete" : true,
      "publish" : false,
      "readPublished" : false
    }
  }, {
    "uuid" : "6d8f391e276445708f391e27648570aa",
    "creator" : {
      "firstName" : "Joe",
      "lastName" : "Doe",
      "uuid" : "9a9af833d45b45d99af833d45b95d984"
    },
    "created" : "2018-07-25T12:05:00.914Z",
    "editor" : {
      "firstName" : "Joe",
      "lastName" : "Doe",
      "uuid" : "15e7c3e2628841cba7c3e26288a1cb1e"
    },
    "edited" : "2018-07-25T12:05:00.914Z",
    "lastname" : "Roe",
    "firstname" : "Jane",
    "username" : "jroe",
    "emailAddress" : "j.roe@nowhere.com",
    "nodeReference" : {
      "projectName" : "dummy",
      "uuid" : "7c6356f4eecf44aba356f4eecf14abd5"
    },
    "enabled" : true,
    "groups" : [ {
      "name" : "editors",
      "uuid" : "6d271088f8874280a71088f88772807c"
    }, {
      "name" : "super-editors",
      "uuid" : "956570e554694b3ba570e554696b3b3e"
    }, {
      "name" : "editors",
      "uuid" : "8a5f8e81a3684ac79f8e81a3689ac74c"
    } ],
    "permissions" : {
      "create" : true,
      "read" : true,
      "update" : true,
      "delete" : true,
      "publish" : false,
      "readPublished" : false
    }
  } ],
  "_metainfo" : {
    "currentPage" : 1,
    "perPage" : 2,
    "pageCount" : 10,
    "totalCount" : 20
  }
}