{
  "data" : [ {
    "uuid" : "01eaa78e983f4fcfaaa78e983f7fcff1",
    "creator" : {
      "firstName" : "Joe",
      "lastName" : "Doe",
      "uuid" : "cd235d8c294a406ea35d8c294aa06e80"
    },
    "created" : "2018-09-28T11:21:12.458Z",
    "editor" : {
      "firstName" : "Joe",
      "lastName" : "Doe",
      "uuid" : "62935a1b3a844090935a1b3a84509061"
    },
    "edited" : "2018-09-28T11:21:12.458Z",
    "name" : "Reader role",
    "groups" : [ ],
    "permissions" : {
      "create" : true,
      "read" : true,
      "update" : true,
      "delete" : true,
      "publish" : false,
      "readPublished" : false
    }
  }, {
    "uuid" : "19de8c501f3a4f3e9e8c501f3aff3e67",
    "creator" : {
      "firstName" : "Joe",
      "lastName" : "Doe",
      "uuid" : "225d9e010b4742729d9e010b4792727b"
    },
    "created" : "2018-09-28T11:21:12.458Z",
    "editor" : {
      "firstName" : "Joe",
      "lastName" : "Doe",
      "uuid" : "a692c4cc82164c5b92c4cc8216dc5b6a"
    },
    "edited" : "2018-09-28T11:21:12.458Z",
    "name" : "Admin role",
    "groups" : [ {
      "name" : "editors",
      "uuid" : "2ad04b4cf30c49f7904b4cf30c79f745"
    }, {
      "name" : "guests",
      "uuid" : "3a2d76088ef04879ad76088ef0b87900"
    } ],
    "permissions" : {
      "create" : true,
      "read" : true,
      "update" : true,
      "delete" : true,
      "publish" : false,
      "readPublished" : false
    }
  } ],
  "_metainfo" : {
    "currentPage" : 1,
    "perPage" : 2,
    "pageCount" : 10,
    "totalCount" : 20
  }
}