{
  "data" : [ {
    "uuid" : "17504950ee024dfb904950ee02fdfb4f",
    "creator" : {
      "firstName" : "Joe",
      "lastName" : "Doe",
      "uuid" : "51dfe8c7bcb148d39fe8c7bcb128d317"
    },
    "created" : "2018-07-25T12:05:01.004Z",
    "editor" : {
      "firstName" : "Joe",
      "lastName" : "Doe",
      "uuid" : "13236fb674b448cfa36fb674b4c8cf28"
    },
    "edited" : "2018-07-25T12:05:01.004Z",
    "tagFamily" : {
      "name" : "colors",
      "uuid" : "0f0974650de443bc8974650de453bca4"
    },
    "name" : "green",
    "permissions" : {
      "create" : true,
      "read" : true,
      "update" : true,
      "delete" : true,
      "publish" : false,
      "readPublished" : false
    }
  }, {
    "uuid" : "5a2071e3eb894401a071e3eb896401a6",
    "creator" : {
      "firstName" : "Joe",
      "lastName" : "Doe",
      "uuid" : "be87c4c3167c49f887c4c3167cc9f86f"
    },
    "created" : "2018-07-25T12:05:01.004Z",
    "editor" : {
      "firstName" : "Joe",
      "lastName" : "Doe",
      "uuid" : "97c3d846b983449b83d846b983249b4b"
    },
    "edited" : "2018-07-25T12:05:01.004Z",
    "tagFamily" : {
      "name" : "colors",
      "uuid" : "a6b4df2493ba4267b4df2493ba82675b"
    },
    "name" : "Name for language tag en",
    "permissions" : {
      "create" : true,
      "read" : true,
      "update" : false,
      "delete" : false,
      "publish" : false,
      "readPublished" : false
    }
  } ],
  "_metainfo" : {
    "currentPage" : 1,
    "perPage" : 2,
    "pageCount" : 10,
    "totalCount" : 20
  }
}